<?xml version="1.0" encoding="utf-8"?>
<!-- Generator: Adobe Illustrator 19.0.0, SVG Export Plug-In . SVG Version: 6.00 Build 0)  -->
<svg version="1.1" id="Layer_1" xmlns="http://www.w3.org/2000/svg" xmlns:xlink="http://www.w3.org/1999/xlink" x="0px" y="0px"
	 width="361.4px" height="940.4px" viewBox="0 0 361.4 940.4" style="enable-background:new 0 0 361.4 940.4;" xml:space="preserve"
	>
<style type="text/css">
	.st0{fill:#231F20;}
	.st1{fill:#FFFFFF;}
	.st2{font-family:'Arial-BoldMT';}
	.st3{font-size:21px;}
	.st4{font-size:22.1205px;}
	.st5{fill:none;stroke:#000000;stroke-width:14.3833;stroke-miterlimit:10;}
	.st6{font-size:36.2631px;}
	.st7{clip-path:url(#SVGID_2_);fill:#D89F47;}
	.st8{clip-path:url(#SVGID_4_);fill:#D89F47;}
	.st9{clip-path:url(#SVGID_6_);fill:#D89F47;stroke:#D89F47;stroke-width:0.8811;stroke-miterlimit:10;}
	.st10{clip-path:url(#SVGID_8_);fill:#D89F47;stroke:#D89F47;stroke-width:0.8811;stroke-miterlimit:10;}
	.st11{clip-path:url(#SVGID_10_);fill:#D89F47;stroke:#D89F47;stroke-width:0.8811;stroke-miterlimit:10;}
	.st12{clip-path:url(#SVGID_12_);fill:#D89F47;stroke:#D89F47;stroke-width:0.8811;stroke-miterlimit:10;}
	.st13{clip-path:url(#SVGID_14_);fill:#D89F47;stroke:#D89F47;stroke-width:0.8811;stroke-miterlimit:10;}
	.st14{clip-path:url(#SVGID_16_);fill:#D89F47;stroke:#D89F47;stroke-width:0.8811;stroke-miterlimit:10;}
	.st15{clip-path:url(#SVGID_18_);fill:#D89F47;stroke:#D89F47;stroke-width:0.8811;stroke-miterlimit:10;}
	.st16{clip-path:url(#SVGID_20_);fill:#D89F47;stroke:#D89F47;stroke-width:0.8811;stroke-miterlimit:10;}
	.st17{clip-path:url(#SVGID_22_);fill:#D89F47;stroke:#D89F47;stroke-width:0.8811;stroke-miterlimit:10;}
	.st18{clip-path:url(#SVGID_24_);fill:#D89F47;stroke:#D89F47;stroke-width:0.8811;stroke-miterlimit:10;}
	.st19{clip-path:url(#SVGID_26_);fill:#D89F47;stroke:#D89F47;stroke-width:0.8811;stroke-miterlimit:10;}
	.st20{clip-path:url(#SVGID_28_);fill:#D89F47;stroke:#D89F47;stroke-width:0.8811;stroke-miterlimit:10;}
	.st21{clip-path:url(#SVGID_30_);fill:#D89F47;stroke:#D89F47;stroke-width:0.8811;stroke-miterlimit:10;}
	.st22{clip-path:url(#SVGID_32_);fill:#D89F47;stroke:#D89F47;stroke-width:0.8811;stroke-miterlimit:10;}
	.st23{clip-path:url(#SVGID_34_);fill:#D89F47;stroke:#D89F47;stroke-width:0.8811;stroke-miterlimit:10;}
	.st24{clip-path:url(#SVGID_36_);fill:#D89F47;stroke:#D89F47;stroke-width:0.6608;stroke-miterlimit:10;}
	.st25{clip-path:url(#SVGID_38_);fill:#D89F47;stroke:#D89F47;stroke-width:0.6608;stroke-miterlimit:10;}
	.st26{clip-path:url(#SVGID_40_);fill:#D89F47;stroke:#D89F47;stroke-width:0.6608;stroke-miterlimit:10;}
	.st27{clip-path:url(#SVGID_42_);fill:#D89F47;stroke:#D89F47;stroke-width:0.6608;stroke-miterlimit:10;}
	.st28{clip-path:url(#SVGID_44_);fill:#D89F47;stroke:#D89F47;stroke-width:0.6608;stroke-miterlimit:10;}
	.st29{clip-path:url(#SVGID_46_);fill:#D89F47;stroke:#D89F47;stroke-width:0.6608;stroke-miterlimit:10;}
	.st30{clip-path:url(#SVGID_48_);fill:#D89F47;stroke:#D89F47;stroke-width:0.6608;stroke-miterlimit:10;}
	.st31{clip-path:url(#SVGID_50_);fill:#D89F47;stroke:#D89F47;stroke-width:0.6608;stroke-miterlimit:10;}
	.st32{clip-path:url(#SVGID_52_);fill:#D89F47;stroke:#D89F47;stroke-width:0.6608;stroke-miterlimit:10;}
	.st33{clip-path:url(#SVGID_54_);fill:#D89F47;stroke:#D89F47;stroke-width:0.6608;stroke-miterlimit:10;}
	.st34{clip-path:url(#SVGID_56_);fill:#D89F47;stroke:#D89F47;stroke-width:0.6608;stroke-miterlimit:10;}
	.st35{clip-path:url(#SVGID_58_);fill:#D89F47;stroke:#D89F47;stroke-width:0.6608;stroke-miterlimit:10;}
	.st36{clip-path:url(#SVGID_60_);fill:#D89F47;stroke:#D89F47;stroke-width:0.6608;stroke-miterlimit:10;}
	.st37{clip-path:url(#SVGID_62_);fill:#D89F47;stroke:#D89F47;stroke-width:0.6608;stroke-miterlimit:10;}
	.st38{clip-path:url(#SVGID_64_);fill:#D89F47;stroke:#D89F47;stroke-width:0.6608;stroke-miterlimit:10;}
	.st39{clip-path:url(#SVGID_66_);fill:#D89F47;stroke:#D89F47;stroke-width:0.6608;stroke-miterlimit:10;}
	.st40{clip-path:url(#SVGID_68_);fill:#D89F47;stroke:#D89F47;stroke-width:0.6608;stroke-miterlimit:10;}
	.st41{clip-path:url(#SVGID_70_);fill:#D89F47;stroke:#D89F47;stroke-width:0.6608;stroke-miterlimit:10;}
	.st42{clip-path:url(#SVGID_72_);fill:#D89F47;stroke:#D89F47;stroke-width:0.6608;stroke-miterlimit:10;}
	.st43{clip-path:url(#SVGID_74_);fill:#D89F47;stroke:#D89F47;stroke-width:0.6608;stroke-miterlimit:10;}
	.st44{clip-path:url(#SVGID_76_);fill:#D89F47;stroke:#D89F47;stroke-width:0.6608;stroke-miterlimit:10;}
	.st45{clip-path:url(#SVGID_78_);fill:#D89F47;stroke:#D89F47;stroke-width:0.6608;stroke-miterlimit:10;}
	.st46{clip-path:url(#SVGID_80_);fill:#D89F47;stroke:#D89F47;stroke-width:0.6608;stroke-miterlimit:10;}
	.st47{clip-path:url(#SVGID_82_);fill:#D89F47;stroke:#D89F47;stroke-width:0.6608;stroke-miterlimit:10;}
	.st48{clip-path:url(#SVGID_84_);fill:#D89F47;stroke:#D89F47;stroke-width:0.6608;stroke-miterlimit:10;}
	.st49{clip-path:url(#SVGID_86_);fill:#D89F47;stroke:#D89F47;stroke-width:0.6608;stroke-miterlimit:10;}
	.st50{clip-path:url(#SVGID_88_);fill:#D89F47;stroke:#D89F47;stroke-width:0.6608;stroke-miterlimit:10;}
	.st51{clip-path:url(#SVGID_90_);fill:#D89F47;stroke:#D89F47;stroke-width:0.6608;stroke-miterlimit:10;}
	.st52{fill:#00AA89;}
	.st53{fill-rule:evenodd;clip-rule:evenodd;fill:#FFFFFF;}
	.st54{fill:#D9A048;}
</style>
<polygon id="XMLID_1638_" class="st0" points="330.7,901.7 175.8,806.3 30.7,901.7 30.7,26.7 330.7,26.7 "/>
<g id="XMLID_1587_">
	<path id="XMLID_1620_" class="st1" d="M114.1,421.8l-6.5-27.2h5.6l4.1,18.7l5-18.7h6.5l4.8,19l4.2-19h5.5l-6.6,27.2h-5.8l-5.4-20.4
		l-5.4,20.4H114.1z"/>
	<path id="XMLID_1618_" class="st1" d="M146,421.8v-27.2h5.5v27.2H146z"/>
	<path id="XMLID_1616_" class="st1" d="M156.8,421.8v-27.2h5.4l11.1,18.2v-18.2h5.1v27.2h-5.5l-11-17.8v17.8H156.8z"/>
	<path id="XMLID_1614_" class="st1" d="M184.3,421.8v-27.2h5.4l11.1,18.2v-18.2h5.1v27.2h-5.5l-11-17.8v17.8H184.3z"/>
	<path id="XMLID_1612_" class="st1" d="M211.7,421.8v-27.2h20.2v4.6h-14.7v6h13.7v4.6h-13.7v7.4h15.2v4.6H211.7z"/>
	<path id="XMLID_1588_" class="st1" d="M237.1,421.8v-27.2h11.6c2.9,0,5,0.2,6.3,0.7c1.3,0.5,2.4,1.4,3.2,2.6
		c0.8,1.3,1.2,2.7,1.2,4.3c0,2-0.6,3.7-1.8,5.1c-1.2,1.3-3,2.2-5.4,2.5c1.2,0.7,2.2,1.5,2.9,2.3c0.8,0.8,1.8,2.3,3.1,4.4l3.3,5.3
		H255l-4-5.9c-1.4-2.1-2.4-3.5-2.9-4c-0.5-0.6-1.1-0.9-1.7-1.1c-0.6-0.2-1.5-0.3-2.8-0.3h-1.1v11.4H237.1z M242.6,406.1h4.1
		c2.6,0,4.3-0.1,4.9-0.3c0.7-0.2,1.2-0.6,1.5-1.2c0.4-0.5,0.6-1.2,0.6-2c0-0.9-0.2-1.7-0.7-2.2c-0.5-0.6-1.2-0.9-2.1-1.1
		c-0.4-0.1-1.8-0.1-4-0.1h-4.3V406.1z"/>
</g>
<text id="XMLID_1289_" transform="matrix(1 0 0 1 116.5528 539.6321)"><tspan x="0" y="0" class="st1 st2 st3">BEST VILLA </tspan><tspan x="-15.8" y="25.2" class="st1 st2 st3">DEVELOPMENT</tspan><tspan x="3.5" y="50.4" class="st1 st2 st3">(THAILAND)</tspan><tspan x="-2.2" y="156.6" class="st1 st2 st4">MahaSamutr</tspan><tspan x="-58.1" y="183.1" class="st1 st2 st4">by PACE Development </tspan><tspan x="-27.4" y="209.7" class="st1 st2 st4">Corporation PLC.</tspan></text>
<rect id="XMLID_1286_" x="7.2" y="7.2" class="st5" width="347.1" height="926"/>
<text id="XMLID_1280_" transform="matrix(1 0 0 1 140.3873 901.6917)" class="st2 st6">2016</text>
<g>
	<g>
		<g>
			<defs>
				<path id="SVGID_1_" d="M35.6,184l45.4,114.7c3.6,12.9-9.2,21.4-11.3,25.1c0,0,3.4,8.1,10.8,18.8c0,0,12.5-40.5,10.8-46.2
					c0,0-37-63.7-41-112.4l9.4-59.1C59.7,124.8,44.3,167,35.6,184"/>
			</defs>
			<use xlink:href="#SVGID_1_"  style="overflow:visible;fill:#D89F47;"/>
			<clipPath id="SVGID_2_">
				<use xlink:href="#SVGID_1_"  style="overflow:visible;"/>
			</clipPath>
			<rect x="35.6" y="124.8" class="st7" width="57.4" height="217.7"/>
		</g>
		<g>
			<defs>
				<path id="SVGID_3_" d="M309.8,184c-4,48.8-41,112.4-41,112.4c-1.7,5.6,10.8,46.2,10.8,46.2c7.4-10.7,10.8-18.8,10.8-18.8
					c-2-3.7-14.8-12.2-11.3-25.1L324.6,184c-8.8-16.9-24.2-59.1-24.2-59.1L309.8,184z"/>
			</defs>
			<use xlink:href="#SVGID_3_"  style="overflow:visible;fill:#D89F47;"/>
			<clipPath id="SVGID_4_">
				<use xlink:href="#SVGID_3_"  style="overflow:visible;"/>
			</clipPath>
			<rect x="267.2" y="124.8" class="st8" width="57.4" height="217.7"/>
		</g>
	</g>
	<g>
		<g>
			<g>
				<defs>
					<path id="SVGID_5_" d="M59.5,183.9c0,0.1,0.1,0.3,0.1,0.4c0,0.1,0.1,0.3,0.1,0.4c0,0.1,0,0.3,0,0.4c0,0.1,0,0.3,0,0.4
						c0,0.2,0,0.5-0.1,0.8c-0.1,0.3-0.1,0.5-0.2,0.8c0.4-0.1,0.9-0.1,1.5-0.2c0.6-0.1,1.3-0.2,2-0.3c0.3,0,0.6-0.1,0.9-0.1
						c0.3,0,0.6,0,0.8-0.1c1-0.1,2-0.2,3-0.3c1-0.1,1.7-0.1,2.3-0.1v29.6c0.1,0,0.3-0.1,0.4-0.1c0.1,0,0.3,0,0.4-0.1
						c0.3,0,0.5-0.1,0.7-0.1c0.2,0,0.4,0,0.6,0h0.3c0.1,0,0.2,0,0.3,0.1c0.3,0,0.5,0,0.7,0.1c0.2,0,0.4,0.1,0.6,0.2v-29.6
						c1,0,2.4,0.1,4.3,0.3c1.9,0.2,4,0.4,6.3,0.8c-0.1-0.3-0.1-0.6-0.2-0.8c-0.1-0.3-0.1-0.5-0.1-0.8c0-0.1,0-0.3,0-0.4
						c0-0.1,0-0.3,0-0.4c0-0.1,0.1-0.2,0.1-0.4c0-0.1,0.1-0.3,0.1-0.4H59.5z"/>
				</defs>
				<use xlink:href="#SVGID_5_"  style="overflow:visible;fill:#D89F47;"/>
				<clipPath id="SVGID_6_">
					<use xlink:href="#SVGID_5_"  style="overflow:visible;"/>
				</clipPath>
				<rect x="59.5" y="183.9" class="st9" width="25.3" height="31.8"/>
				<use xlink:href="#SVGID_5_"  style="overflow:visible;fill:none;stroke:#D89F47;stroke-width:0.8811;stroke-miterlimit:10;"/>
			</g>
			<g>
				<defs>
					<path id="SVGID_7_" d="M59.5,183.9c0,0.1,0.1,0.3,0.1,0.4c0,0.1,0.1,0.3,0.1,0.4c0,0.1,0,0.3,0,0.4c0,0.1,0,0.3,0,0.4
						c0,0.2,0,0.5-0.1,0.8c-0.1,0.3-0.1,0.5-0.2,0.8c0.4-0.1,0.9-0.1,1.5-0.2c0.6-0.1,1.3-0.2,2-0.3c0.3,0,0.6-0.1,0.9-0.1
						c0.3,0,0.6,0,0.8-0.1c1-0.1,2-0.2,3-0.3c1-0.1,1.7-0.1,2.3-0.1v29.6c0.1,0,0.3-0.1,0.4-0.1c0.1,0,0.3,0,0.4-0.1
						c0.3,0,0.5-0.1,0.7-0.1c0.2,0,0.4,0,0.6,0h0.3c0.1,0,0.2,0,0.3,0.1c0.3,0,0.5,0,0.7,0.1c0.2,0,0.4,0.1,0.6,0.2v-29.6
						c1,0,2.4,0.1,4.3,0.3c1.9,0.2,4,0.4,6.3,0.8c-0.1-0.3-0.1-0.6-0.2-0.8c-0.1-0.3-0.1-0.5-0.1-0.8c0-0.1,0-0.3,0-0.4
						c0-0.1,0-0.3,0-0.4c0-0.1,0.1-0.2,0.1-0.4c0-0.1,0.1-0.3,0.1-0.4H59.5z"/>
				</defs>
				<use xlink:href="#SVGID_7_"  style="overflow:visible;fill:#D89F47;"/>
				<clipPath id="SVGID_8_">
					<use xlink:href="#SVGID_7_"  style="overflow:visible;"/>
				</clipPath>
				<rect x="59.5" y="183.9" class="st10" width="25.3" height="31.8"/>
				<use xlink:href="#SVGID_7_"  style="overflow:visible;fill:none;stroke:#D89F47;stroke-width:0.8811;stroke-miterlimit:10;"/>
			</g>
			<g>
				<defs>
					<path id="SVGID_9_" d="M117.7,183.7c-0.2,0.1-0.5,0.1-0.7,0.1h-0.2h-0.2c-0.2,0-0.5,0-0.7,0c-0.2,0-0.5-0.1-0.7-0.1
						c-0.1,0-0.2,0-0.4,0c-0.1,0-0.2-0.1-0.4-0.1v13.4c-0.8,0.2-2.2,0.3-4.1,0.4c-1.9,0.1-3.9,0.2-6,0.2c-2.1,0-4.1-0.1-6-0.2
						c-1.9-0.1-3.3-0.2-4.3-0.4v-13.4c-0.2,0.1-0.4,0.2-0.7,0.2c-0.3,0.1-0.6,0.1-1,0.1h-0.1h-0.1h-0.2h-0.2c-0.3,0-0.7-0.1-1-0.1
						c-0.3-0.1-0.6-0.1-0.8-0.2v32.1c0.5-0.1,0.9-0.1,1.2-0.2c0.4-0.1,0.7-0.1,0.9-0.1c0.3,0,0.6,0,0.9,0.1c0.3,0.1,0.7,0.1,1,0.2
						v-15.9c0.8-0.1,1.6-0.1,2.4-0.2c0.8-0.1,1.7-0.1,2.6-0.1c0.8,0,1.7-0.1,2.5-0.1c0.8,0,1.7,0,2.4,0c2.2,0,4.3,0,6.2,0.1
						c1.9,0.1,3.3,0.2,4.2,0.3v15.9c0.1,0,0.2-0.1,0.4-0.1c0.1,0,0.3,0,0.4-0.1c0.3,0,0.5-0.1,0.7-0.1c0.2,0,0.5,0,0.7,0h0.2h0.2
						c0.3,0,0.5,0.1,0.7,0.1c0.2,0,0.5,0.1,0.7,0.2v-32.1C118.2,183.6,118,183.7,117.7,183.7"/>
				</defs>
				<use xlink:href="#SVGID_9_"  style="overflow:visible;fill:#D89F47;"/>
				<clipPath id="SVGID_10_">
					<use xlink:href="#SVGID_9_"  style="overflow:visible;"/>
				</clipPath>
				<rect x="89.8" y="183.5" class="st11" width="28.6" height="32.1"/>
				<use xlink:href="#SVGID_9_"  style="overflow:visible;fill:none;stroke:#D89F47;stroke-width:0.8811;stroke-miterlimit:10;"/>
			</g>
			<g>
				<defs>
					<path id="SVGID_11_" d="M89.8,215.7c0.5-0.1,0.9-0.1,1.2-0.2c0.4-0.1,0.7-0.1,0.9-0.1c0.3,0,0.6,0,0.9,0.1
						c0.3,0.1,0.7,0.1,1,0.2v-15.9c0.8-0.1,1.6-0.1,2.4-0.2c0.8-0.1,1.7-0.1,2.6-0.1c0.8,0,1.7-0.1,2.5-0.1c0.8,0,1.7,0,2.4,0
						c2.2,0,4.3,0,6.2,0.1c1.9,0.1,3.3,0.2,4.2,0.3v15.9c0.1,0,0.2-0.1,0.4-0.1c0.1,0,0.3,0,0.4-0.1c0.3,0,0.5-0.1,0.7-0.1
						c0.2,0,0.5,0,0.7,0h0.2h0.2c0.3,0,0.5,0.1,0.7,0.1c0.2,0,0.5,0.1,0.7,0.2v-32.1h0c-0.2,0.1-0.5,0.1-0.7,0.2
						c-0.2,0.1-0.5,0.1-0.7,0.1h-0.2h-0.2c-0.2,0-0.5,0-0.7,0c-0.2,0-0.5-0.1-0.7-0.1c-0.1,0-0.2,0-0.4,0c-0.1,0-0.2-0.1-0.4-0.1h0
						v13.4c-0.8,0.2-2.2,0.3-4.1,0.4c-1.9,0.1-3.9,0.2-6,0.2c-2.1,0-4.1-0.1-6-0.2c-1.9-0.1-3.3-0.2-4.3-0.4v-13.4h0
						c-0.2,0.1-0.4,0.2-0.7,0.2c-0.3,0.1-0.6,0.1-1,0.1h-0.1h-0.1h-0.2h-0.2c-0.3,0-0.7-0.1-1-0.1c-0.3-0.1-0.6-0.1-0.8-0.2V215.7z"
						/>
				</defs>
				<use xlink:href="#SVGID_11_"  style="overflow:visible;fill:#D89F47;"/>
				<clipPath id="SVGID_12_">
					<use xlink:href="#SVGID_11_"  style="overflow:visible;"/>
				</clipPath>
				<rect x="89.8" y="183.5" class="st12" width="28.6" height="32.1"/>
				<use xlink:href="#SVGID_11_"  style="overflow:visible;fill:none;stroke:#D89F47;stroke-width:0.8811;stroke-miterlimit:10;"/>
			</g>
			<g>
				<defs>
					<path id="SVGID_13_" d="M138.9,189.7l4.9,11.2H134L138.9,189.7z M139.3,183.5l-15.1,32.1h0.6c0.2,0,0.4,0,0.6-0.1h0.3h0.3h0.3
						h0.3h0.3h0.3c0.1,0,0.3,0,0.4,0c0.1,0,0.3,0,0.3,0l4.9-12.6h11.7l5.4,12.6c0.1,0,0.3,0,0.5,0c0.2,0,0.3,0,0.5,0h0.5h0.4h0.5
						h0.5h0.5h0.5c0.3,0,0.6,0.1,0.9,0.1h0.6l-14.7-32.1H139.3z"/>
				</defs>
				<use xlink:href="#SVGID_13_"  style="overflow:visible;fill:#D89F47;"/>
				<clipPath id="SVGID_14_">
					<use xlink:href="#SVGID_13_"  style="overflow:visible;"/>
				</clipPath>
				<rect x="124.3" y="183.5" class="st13" width="30.9" height="32.1"/>
				<use xlink:href="#SVGID_13_"  style="overflow:visible;fill:none;stroke:#D89F47;stroke-width:0.8811;stroke-miterlimit:10;"/>
			</g>
			<g>
				<defs>
					<path id="SVGID_15_" d="M164.4,184.1c-0.3,0.1-0.6,0.1-0.9,0.1h-0.2h-0.2c-0.4,0-0.7,0-1.1-0.1c-0.4,0-0.7-0.1-1-0.2v31.8
						c0.3-0.1,0.6-0.1,1-0.2c0.4-0.1,0.7-0.1,1.1-0.1h0.2h0.2c0.3,0,0.6,0.1,0.9,0.1c0.3,0,0.5,0.1,0.7,0.2v-31.8
						C164.9,184,164.7,184,164.4,184.1"/>
				</defs>
				<use xlink:href="#SVGID_15_"  style="overflow:visible;fill:#D89F47;"/>
				<clipPath id="SVGID_16_">
					<use xlink:href="#SVGID_15_"  style="overflow:visible;"/>
				</clipPath>
				<rect x="161" y="183.9" class="st14" width="4.1" height="31.8"/>
				<use xlink:href="#SVGID_15_"  style="overflow:visible;fill:none;stroke:#D89F47;stroke-width:0.8811;stroke-miterlimit:10;"/>
			</g>
			<g>
				<defs>
					<path id="SVGID_17_" d="M164.4,184.1c-0.3,0.1-0.6,0.1-0.9,0.1h-0.2h-0.2c-0.4,0-0.7,0-1.1-0.1c-0.4,0-0.7-0.1-1-0.2v31.8
						c0.3-0.1,0.6-0.1,1-0.2c0.4-0.1,0.7-0.1,1.1-0.1h0.2h0.2c0.3,0,0.6,0.1,0.9,0.1c0.3,0,0.5,0.1,0.7,0.2l0-31.8
						C164.9,184,164.7,184,164.4,184.1"/>
				</defs>
				<use xlink:href="#SVGID_17_"  style="overflow:visible;fill:#D89F47;"/>
				<clipPath id="SVGID_18_">
					<use xlink:href="#SVGID_17_"  style="overflow:visible;"/>
				</clipPath>
				<rect x="161" y="183.9" class="st15" width="4.1" height="31.8"/>
				<use xlink:href="#SVGID_17_"  style="overflow:visible;fill:none;stroke:#D89F47;stroke-width:0.8811;stroke-miterlimit:10;"/>
			</g>
			<g>
				<defs>
					<path id="SVGID_19_" d="M177.9,184.1c-0.3,0-0.6,0.1-1,0.1h-0.1h-0.1h-0.4h-0.4c-0.3,0-0.5-0.1-0.7-0.1c-0.2,0-0.5-0.1-0.7-0.2
						v31.8h17.3c0-0.1,0-0.2,0-0.4c0-0.1,0-0.3,0-0.5c0-0.1-0.1-0.1-0.1-0.2c0-0.1,0-0.2-0.1-0.3v-0.2v-0.2c0-0.1,0-0.2,0-0.2
						c0-0.1,0-0.2,0-0.3c0,0,0-0.1,0-0.1c0,0,0-0.1,0-0.1c0-0.1,0-0.1,0-0.2c0-0.1,0-0.1,0-0.1c-0.4,0-0.8,0.1-1.3,0.1
						c-0.5,0-1.1,0.1-1.7,0.1c-0.5,0-1,0.1-1.6,0.1c-0.6,0-1.1,0.1-1.7,0.1c-0.6,0-1.2,0.1-1.8,0.1c-0.6,0-1.1,0-1.7,0
						c-0.4,0-0.9,0-1.3,0c-0.4,0-0.8,0-1.2-0.1c-0.2,0-0.4,0-0.5,0c-0.2,0-0.3,0-0.5,0v-29.3C178.4,184,178.2,184.1,177.9,184.1"/>
				</defs>
				<use xlink:href="#SVGID_19_"  style="overflow:visible;fill:#D89F47;"/>
				<clipPath id="SVGID_20_">
					<use xlink:href="#SVGID_19_"  style="overflow:visible;"/>
				</clipPath>
				<rect x="174.5" y="183.9" class="st16" width="17.3" height="31.8"/>
				<use xlink:href="#SVGID_19_"  style="overflow:visible;fill:none;stroke:#D89F47;stroke-width:0.8811;stroke-miterlimit:10;"/>
			</g>
			<g>
				<defs>
					<path id="SVGID_21_" d="M177.9,184.1c-0.3,0-0.6,0.1-1,0.1h-0.1h-0.1h-0.4h-0.4c-0.3,0-0.5-0.1-0.7-0.1c-0.2,0-0.5-0.1-0.7-0.2
						v31.8h17.3c0-0.1,0-0.2,0-0.4c0-0.1,0-0.3,0-0.5c0-0.1-0.1-0.1-0.1-0.2c0-0.1,0-0.2-0.1-0.3v-0.2v-0.2c0-0.1,0-0.2,0-0.2
						c0-0.1,0-0.2,0-0.3c0,0,0-0.1,0-0.1c0,0,0-0.1,0-0.1c0-0.1,0-0.1,0-0.2c0-0.1,0-0.1,0-0.1c-0.4,0-0.8,0.1-1.3,0.1
						c-0.5,0-1.1,0.1-1.7,0.1c-0.5,0-1,0.1-1.6,0.1c-0.6,0-1.1,0.1-1.7,0.1c-0.6,0-1.2,0.1-1.8,0.1c-0.6,0-1.1,0-1.7,0
						c-0.4,0-0.9,0-1.3,0c-0.4,0-0.8,0-1.2-0.1c-0.2,0-0.4,0-0.5,0c-0.2,0-0.3,0-0.5,0v-29.3C178.4,184,178.2,184.1,177.9,184.1"/>
				</defs>
				<use xlink:href="#SVGID_21_"  style="overflow:visible;fill:#D89F47;"/>
				<clipPath id="SVGID_22_">
					<use xlink:href="#SVGID_21_"  style="overflow:visible;"/>
				</clipPath>
				<rect x="174.5" y="183.9" class="st17" width="17.3" height="31.8"/>
				<use xlink:href="#SVGID_21_"  style="overflow:visible;fill:none;stroke:#D89F47;stroke-width:0.8811;stroke-miterlimit:10;"/>
			</g>
			<g>
				<defs>
					<path id="SVGID_23_" d="M210.6,189.7l4.9,11.2h-9.9L210.6,189.7z M211,183.5l-15.1,32.1h0.6c0.2,0,0.4,0,0.6-0.1h0.3h0.3h0.3
						h0.3h0.3h0.3c0.1,0,0.3,0,0.4,0c0.1,0,0.3,0,0.3,0l4.9-12.6h11.7l5.4,12.6c0.1,0,0.3,0,0.5,0c0.2,0,0.3,0,0.5,0h0.5h0.4h0.5
						h0.5h0.5h0.5c0.3,0,0.6,0.1,0.9,0.1h0.6l-14.7-32.1H211z"/>
				</defs>
				<use xlink:href="#SVGID_23_"  style="overflow:visible;fill:#D89F47;"/>
				<clipPath id="SVGID_24_">
					<use xlink:href="#SVGID_23_"  style="overflow:visible;"/>
				</clipPath>
				<rect x="195.9" y="183.5" class="st18" width="30.9" height="32.1"/>
				<use xlink:href="#SVGID_23_"  style="overflow:visible;fill:none;stroke:#D89F47;stroke-width:0.8811;stroke-miterlimit:10;"/>
			</g>
			<g>
				<defs>
					<path id="SVGID_25_" d="M210.6,189.7l4.9,11.2h-9.9L210.6,189.7z M195.9,215.7h0.6c0.2,0,0.4,0,0.6-0.1h0.3h0.3h0.3h0.3h0.3
						h0.3c0.1,0,0.3,0,0.4,0c0.1,0,0.3,0,0.3,0l4.9-12.6h11.7l5.4,12.6c0.1,0,0.3,0,0.5,0c0.2,0,0.3,0,0.5,0h0.5h0.4h0.5h0.5h0.5
						h0.5c0.3,0,0.6,0.1,0.9,0.1h0.6l-14.7-32.1H211L195.9,215.7z"/>
				</defs>
				<use xlink:href="#SVGID_25_"  style="overflow:visible;fill:#D89F47;"/>
				<clipPath id="SVGID_26_">
					<use xlink:href="#SVGID_25_"  style="overflow:visible;"/>
				</clipPath>
				<rect x="195.9" y="183.5" class="st19" width="30.9" height="32.1"/>
				<use xlink:href="#SVGID_25_"  style="overflow:visible;fill:none;stroke:#D89F47;stroke-width:0.8811;stroke-miterlimit:10;"/>
			</g>
			<g>
				<defs>
					<path id="SVGID_27_" d="M260.2,184.1c-0.3,0-0.5,0.1-0.8,0.1c-0.3,0-0.5,0-0.8-0.1c-0.3,0-0.5-0.1-0.7-0.2v24.3l-23.1-24.3
						h-2.3v31.8c0.3-0.1,0.6-0.1,0.9-0.2c0.3-0.1,0.5-0.1,0.7-0.1h0.2h0.2c0.2,0,0.4,0.1,0.6,0.1c0.2,0,0.3,0.1,0.5,0.2v-24.9
						l23.4,24.9h1.9v-31.8C260.7,184,260.5,184.1,260.2,184.1"/>
				</defs>
				<use xlink:href="#SVGID_27_"  style="overflow:visible;fill:#D89F47;"/>
				<clipPath id="SVGID_28_">
					<use xlink:href="#SVGID_27_"  style="overflow:visible;"/>
				</clipPath>
				<rect x="232.6" y="183.9" class="st20" width="28.3" height="31.8"/>
				<use xlink:href="#SVGID_27_"  style="overflow:visible;fill:none;stroke:#D89F47;stroke-width:0.8811;stroke-miterlimit:10;"/>
			</g>
			<g>
				<defs>
					<path id="SVGID_29_" d="M260.2,184.1c-0.3,0-0.5,0.1-0.8,0.1c-0.3,0-0.5,0-0.8-0.1c-0.3,0-0.5-0.1-0.7-0.2v24.3l-23.1-24.3
						h-2.3v31.8c0.3-0.1,0.6-0.1,0.9-0.2c0.3-0.1,0.5-0.1,0.7-0.1h0.2h0.2c0.2,0,0.4,0.1,0.6,0.1c0.2,0,0.3,0.1,0.5,0.2v-24.9
						l23.4,24.9h1.9v-31.8C260.7,184,260.5,184.1,260.2,184.1"/>
				</defs>
				<use xlink:href="#SVGID_29_"  style="overflow:visible;fill:#D89F47;"/>
				<clipPath id="SVGID_30_">
					<use xlink:href="#SVGID_29_"  style="overflow:visible;"/>
				</clipPath>
				<rect x="232.6" y="183.9" class="st21" width="28.3" height="31.8"/>
				<use xlink:href="#SVGID_29_"  style="overflow:visible;fill:none;stroke:#D89F47;stroke-width:0.8811;stroke-miterlimit:10;"/>
			</g>
			<g>
				<defs>
					<path id="SVGID_31_" d="M276.2,213.6c-0.2,0-0.4,0-0.6,0c-0.2,0-0.4,0-0.7,0v-27.5c0.3,0,0.6,0,1-0.1c0.4,0,0.9-0.1,1.4-0.2
						c0.5,0,1.1-0.1,1.7-0.1c0.6,0,1.2-0.1,1.9-0.1c0.7,0,1.3,0,2.1,0.1c0.7,0.1,1.4,0.1,2.1,0.2c2.7,0.4,5.1,1.5,7.3,3.2
						c2.2,1.7,3.3,4.5,3.3,8.6v1.3c-0.3,5.3-1.8,9.1-4.3,11.4c-2.5,2.3-6.6,3.4-12.1,3.4c-0.4,0-0.8,0-1.2-0.1
						c-0.4,0-0.9-0.1-1.3-0.1h-0.3C276.5,213.7,276.4,213.6,276.2,213.6 M270.5,183.9v31.8h14c4.5-0.2,7.9-1.4,10.3-3.5
						c2.3-2.1,3.9-4.4,4.8-6.9c0.4-1.2,0.7-2.4,0.9-3.5c0.2-1.1,0.2-2.1,0.2-3.1c0-4-1.1-7.4-3.2-10.4c-2.2-2.9-6-4.4-11.5-4.4
						H270.5z"/>
				</defs>
				<use xlink:href="#SVGID_31_"  style="overflow:visible;fill:#D89F47;"/>
				<clipPath id="SVGID_32_">
					<use xlink:href="#SVGID_31_"  style="overflow:visible;"/>
				</clipPath>
				<rect x="270.5" y="183.9" class="st22" width="30.2" height="31.8"/>
				<use xlink:href="#SVGID_31_"  style="overflow:visible;fill:none;stroke:#D89F47;stroke-width:0.8811;stroke-miterlimit:10;"/>
			</g>
			<g>
				<defs>
					<path id="SVGID_33_" d="M276.2,213.6c-0.2,0-0.4,0-0.6,0c-0.2,0-0.4,0-0.7,0v-27.5c0.3,0,0.6,0,1-0.1c0.4,0,0.9-0.1,1.4-0.2
						c0.5,0,1.1-0.1,1.7-0.1c0.6,0,1.2-0.1,1.9-0.1c0.7,0,1.3,0,2.1,0.1c0.7,0.1,1.4,0.1,2.1,0.2c2.7,0.4,5.1,1.5,7.3,3.2
						c2.2,1.7,3.3,4.5,3.3,8.6v1.3c-0.3,5.3-1.8,9.1-4.3,11.4c-2.5,2.3-6.6,3.4-12.1,3.4c-0.4,0-0.8,0-1.2-0.1
						c-0.4,0-0.9-0.1-1.3-0.1h-0.3C276.5,213.7,276.4,213.6,276.2,213.6 M270.5,183.9v31.8h14c4.5-0.2,7.9-1.4,10.3-3.5
						c2.3-2.1,3.9-4.4,4.8-6.9c0.4-1.2,0.7-2.4,0.9-3.5c0.2-1.1,0.2-2.1,0.2-3.1c0-4-1.1-7.4-3.2-10.4c-2.2-2.9-6-4.4-11.5-4.4
						H270.5z"/>
				</defs>
				<use xlink:href="#SVGID_33_"  style="overflow:visible;fill:#D89F47;"/>
				<clipPath id="SVGID_34_">
					<use xlink:href="#SVGID_33_"  style="overflow:visible;"/>
				</clipPath>
				<rect x="270.5" y="183.9" class="st23" width="30.2" height="31.8"/>
				<use xlink:href="#SVGID_33_"  style="overflow:visible;fill:none;stroke:#D89F47;stroke-width:0.8811;stroke-miterlimit:10;"/>
			</g>
		</g>
		<g>
			<g>
				<defs>
					<path id="SVGID_35_" d="M97.7,236.6c-0.5-0.1-1-0.2-1.4-0.4v-9.6h2.8c0.7,0,1.4,0.1,2.1,0.4c0.6,0.2,1.2,0.6,1.7,1.1
						c0.5,0.5,0.8,1,1.1,1.7c0.3,0.7,0.4,1.4,0.4,2.2c0,0.7-0.1,1.3-0.3,1.9c-0.2,0.6-0.5,1.1-1,1.6c-0.4,0.4-0.9,0.8-1.6,1.1
						c-0.6,0.3-1.4,0.4-2.3,0.4C98.7,236.8,98.2,236.7,97.7,236.6 M92.3,224.8v23.7h4v-11c0.2,0.1,0.5,0.1,0.9,0.2
						c0.4,0.1,0.7,0.1,1.2,0.1c0.4,0,0.9,0.1,1.3,0.1c0.5,0,0.9,0,1.3,0c1,0,1.9-0.1,2.8-0.4c0.9-0.3,1.8-0.7,2.5-1.2
						c0.7-0.5,1.3-1.2,1.8-2c0.5-0.8,0.7-1.7,0.7-2.8c0-1.1-0.2-2-0.7-2.9c-0.5-0.8-1.1-1.5-1.9-2.1c-0.8-0.6-1.7-1-2.8-1.3
						c-1.1-0.3-2.2-0.5-3.5-0.5H92.3z"/>
				</defs>
				<use xlink:href="#SVGID_35_"  style="overflow:visible;fill:#D89F47;"/>
				<clipPath id="SVGID_36_">
					<use xlink:href="#SVGID_35_"  style="overflow:visible;"/>
				</clipPath>
				<rect x="92.3" y="224.8" class="st24" width="16.4" height="23.7"/>
				<use xlink:href="#SVGID_35_"  style="overflow:visible;fill:none;stroke:#D89F47;stroke-width:0.6608;stroke-miterlimit:10;"/>
			</g>
			<g>
				<defs>
					<path id="SVGID_37_" d="M97.7,236.6c-0.5-0.1-1-0.2-1.4-0.4v-9.6h2.8c0.7,0,1.4,0.1,2.1,0.4c0.6,0.2,1.2,0.6,1.7,1.1
						c0.5,0.5,0.8,1,1.1,1.7c0.3,0.7,0.4,1.4,0.4,2.2c0,0.7-0.1,1.3-0.3,1.9c-0.2,0.6-0.5,1.1-1,1.6c-0.4,0.4-0.9,0.8-1.6,1.1
						c-0.6,0.3-1.4,0.4-2.3,0.4C98.7,236.8,98.2,236.7,97.7,236.6 M92.3,224.8v23.7h4v-11c0.2,0.1,0.5,0.1,0.9,0.2
						c0.4,0.1,0.7,0.1,1.2,0.1c0.4,0,0.9,0.1,1.3,0.1c0.5,0,0.9,0,1.3,0c1,0,1.9-0.1,2.8-0.4c0.9-0.3,1.8-0.7,2.5-1.2
						c0.7-0.5,1.3-1.2,1.8-2c0.5-0.8,0.7-1.7,0.7-2.8c0-1.1-0.2-2-0.7-2.9c-0.5-0.8-1.1-1.5-1.9-2.1c-0.8-0.6-1.7-1-2.8-1.3
						c-1.1-0.3-2.2-0.5-3.5-0.5H92.3z"/>
				</defs>
				<use xlink:href="#SVGID_37_"  style="overflow:visible;fill:#D89F47;"/>
				<clipPath id="SVGID_38_">
					<use xlink:href="#SVGID_37_"  style="overflow:visible;"/>
				</clipPath>
				<rect x="92.3" y="224.8" class="st25" width="16.4" height="23.7"/>
				<use xlink:href="#SVGID_37_"  style="overflow:visible;fill:none;stroke:#D89F47;stroke-width:0.6608;stroke-miterlimit:10;"/>
			</g>
			<g>
				<defs>
					<path id="SVGID_39_" d="M116.1,226.3h3.5c0.7,0,1.4,0.1,2,0.4c0.6,0.2,1.1,0.6,1.6,1c0.4,0.4,0.8,0.9,1,1.5
						c0.3,0.6,0.4,1.2,0.4,1.9c0,0.8-0.2,1.5-0.5,2.1c-0.3,0.6-0.8,1.2-1.3,1.6c-0.6,0.4-1.2,0.8-2,1c-0.8,0.2-1.6,0.4-2.5,0.4h-2.3
						V226.3z M112.2,224.8v23.7h4v-11.1h2.8l8.2,11.1h4.6l-8.6-11.5c0.9-0.2,1.7-0.5,2.4-0.9c0.7-0.4,1.3-0.8,1.8-1.3
						c0.5-0.5,0.9-1.1,1.2-1.7c0.3-0.6,0.4-1.3,0.4-2.1c0-0.9-0.2-1.7-0.5-2.5c-0.4-0.8-0.9-1.4-1.6-2c-0.7-0.6-1.6-1-2.7-1.3
						c-1.1-0.3-2.3-0.5-3.8-0.5H112.2z"/>
				</defs>
				<use xlink:href="#SVGID_39_"  style="overflow:visible;fill:#D89F47;"/>
				<clipPath id="SVGID_40_">
					<use xlink:href="#SVGID_39_"  style="overflow:visible;"/>
				</clipPath>
				<rect x="112.2" y="224.8" class="st26" width="19.6" height="23.7"/>
				<use xlink:href="#SVGID_39_"  style="overflow:visible;fill:none;stroke:#D89F47;stroke-width:0.6608;stroke-miterlimit:10;"/>
			</g>
			<g>
				<defs>
					<path id="SVGID_41_" d="M116.1,226.3h3.5c0.7,0,1.4,0.1,2,0.4c0.6,0.2,1.1,0.6,1.6,1c0.4,0.4,0.8,0.9,1,1.5
						c0.3,0.6,0.4,1.2,0.4,1.9c0,0.8-0.2,1.5-0.5,2.1c-0.3,0.6-0.8,1.2-1.3,1.6c-0.6,0.4-1.2,0.8-2,1c-0.8,0.2-1.6,0.4-2.5,0.4h-2.3
						V226.3z M112.2,224.8v23.7h4v-11.1h2.8l8.2,11.1h4.6l-8.6-11.5c0.9-0.2,1.7-0.5,2.4-0.9c0.7-0.4,1.3-0.8,1.8-1.3
						c0.5-0.5,0.9-1.1,1.2-1.7c0.3-0.6,0.4-1.3,0.4-2.1c0-0.9-0.2-1.7-0.5-2.5c-0.4-0.8-0.9-1.4-1.6-2c-0.7-0.6-1.6-1-2.7-1.3
						c-1.1-0.3-2.3-0.5-3.8-0.5H112.2z"/>
				</defs>
				<use xlink:href="#SVGID_41_"  style="overflow:visible;fill:#D89F47;"/>
				<clipPath id="SVGID_42_">
					<use xlink:href="#SVGID_41_"  style="overflow:visible;"/>
				</clipPath>
				<rect x="112.2" y="224.8" class="st27" width="19.6" height="23.7"/>
				<use xlink:href="#SVGID_41_"  style="overflow:visible;fill:none;stroke:#D89F47;stroke-width:0.6608;stroke-miterlimit:10;"/>
			</g>
			<g>
				<defs>
					<path id="SVGID_43_" d="M142.1,247.1c-1.1-0.6-1.9-1.4-2.6-2.4c-0.7-1-1.2-2.2-1.6-3.6c-0.4-1.4-0.5-2.9-0.5-4.6
						c0-1.6,0.2-3.1,0.5-4.5c0.4-1.4,0.9-2.5,1.6-3.5c0.7-1,1.6-1.7,2.6-2.3c1-0.5,2.3-0.8,3.6-0.8c1.4,0,2.5,0.3,3.6,0.8
						c1,0.5,1.9,1.3,2.6,2.3c0.7,1,1.2,2.1,1.6,3.5c0.4,1.4,0.5,2.8,0.5,4.5c0,1.6-0.2,3.2-0.5,4.6c-0.4,1.4-0.9,2.6-1.6,3.6
						c-0.7,1-1.6,1.8-2.6,2.4c-1,0.6-2.2,0.8-3.6,0.8C144.4,247.9,143.2,247.6,142.1,247.1 M142.3,224.7c-1.1,0.3-2.2,0.7-3.1,1.2
						c-1,0.5-1.8,1.2-2.6,1.9c-0.8,0.7-1.5,1.6-2,2.5c-0.6,0.9-1,1.9-1.3,2.9c-0.3,1-0.5,2.1-0.5,3.3c0,1.2,0.2,2.3,0.5,3.3
						c0.3,1.1,0.7,2.1,1.3,3c0.6,0.9,1.2,1.8,2,2.5c0.8,0.8,1.7,1.4,2.6,2c1,0.5,2,1,3.1,1.3c1.1,0.3,2.3,0.5,3.5,0.5
						c1.2,0,2.4-0.2,3.5-0.5c1.1-0.3,2.2-0.7,3.1-1.3c1-0.5,1.8-1.2,2.6-2c0.8-0.8,1.5-1.6,2-2.5c0.5-0.9,1-1.9,1.3-3
						c0.3-1.1,0.5-2.2,0.5-3.3c0-1.1-0.2-2.2-0.5-3.3c-0.3-1-0.7-2-1.3-2.9c-0.6-0.9-1.2-1.7-2-2.5c-0.8-0.7-1.7-1.4-2.6-1.9
						c-1-0.5-2-0.9-3.1-1.2c-1.1-0.3-2.3-0.4-3.5-0.4C144.6,224.3,143.4,224.4,142.3,224.7"/>
				</defs>
				<use xlink:href="#SVGID_43_"  style="overflow:visible;fill:#D89F47;"/>
				<clipPath id="SVGID_44_">
					<use xlink:href="#SVGID_43_"  style="overflow:visible;"/>
				</clipPath>
				<rect x="132.7" y="224.3" class="st28" width="26.1" height="24.8"/>
				<use xlink:href="#SVGID_43_"  style="overflow:visible;fill:none;stroke:#D89F47;stroke-width:0.6608;stroke-miterlimit:10;"/>
			</g>
			<g>
				<defs>
					<path id="SVGID_45_" d="M142.1,247.1c-1.1-0.6-1.9-1.4-2.6-2.4c-0.7-1-1.2-2.2-1.6-3.6c-0.4-1.4-0.5-2.9-0.5-4.6
						c0-1.6,0.2-3.1,0.5-4.5c0.4-1.4,0.9-2.5,1.6-3.5c0.7-1,1.6-1.7,2.6-2.3c1-0.5,2.3-0.8,3.6-0.8c1.4,0,2.5,0.3,3.6,0.8
						c1,0.5,1.9,1.3,2.6,2.3c0.7,1,1.2,2.1,1.6,3.5c0.4,1.4,0.5,2.8,0.5,4.5c0,1.6-0.2,3.2-0.5,4.6c-0.4,1.4-0.9,2.6-1.6,3.6
						c-0.7,1-1.6,1.8-2.6,2.4c-1,0.6-2.2,0.8-3.6,0.8C144.4,247.9,143.2,247.6,142.1,247.1 M142.3,224.7c-1.1,0.3-2.2,0.7-3.1,1.2
						c-1,0.5-1.8,1.2-2.6,1.9c-0.8,0.7-1.5,1.6-2,2.5c-0.6,0.9-1,1.9-1.3,2.9c-0.3,1-0.5,2.1-0.5,3.3c0,1.2,0.2,2.3,0.5,3.3
						c0.3,1.1,0.7,2.1,1.3,3c0.6,0.9,1.2,1.8,2,2.5c0.8,0.8,1.7,1.4,2.6,2c1,0.5,2,1,3.1,1.3c1.1,0.3,2.3,0.5,3.5,0.5
						c1.2,0,2.4-0.2,3.5-0.5c1.1-0.3,2.2-0.7,3.1-1.3c1-0.5,1.8-1.2,2.6-2c0.8-0.8,1.5-1.6,2-2.5c0.5-0.9,1-1.9,1.3-3
						c0.3-1.1,0.5-2.2,0.5-3.3c0-1.1-0.2-2.2-0.5-3.3c-0.3-1-0.7-2-1.3-2.9c-0.6-0.9-1.2-1.7-2-2.5c-0.8-0.7-1.7-1.4-2.6-1.9
						c-1-0.5-2-0.9-3.1-1.2c-1.1-0.3-2.3-0.4-3.5-0.4C144.6,224.3,143.4,224.4,142.3,224.7"/>
				</defs>
				<use xlink:href="#SVGID_45_"  style="overflow:visible;fill:#D89F47;"/>
				<clipPath id="SVGID_46_">
					<use xlink:href="#SVGID_45_"  style="overflow:visible;"/>
				</clipPath>
				<rect x="132.7" y="224.3" class="st29" width="26.1" height="24.8"/>
				<use xlink:href="#SVGID_45_"  style="overflow:visible;fill:none;stroke:#D89F47;stroke-width:0.6608;stroke-miterlimit:10;"/>
			</g>
			<g>
				<defs>
					<path id="SVGID_47_" d="M169.2,236.6c-0.5-0.1-1-0.2-1.4-0.4v-9.6h2.8c0.7,0,1.4,0.1,2.1,0.4c0.6,0.2,1.2,0.6,1.7,1.1
						c0.5,0.5,0.9,1,1.1,1.7c0.3,0.7,0.4,1.4,0.4,2.2c0,0.7-0.1,1.3-0.3,1.9c-0.2,0.6-0.5,1.1-0.9,1.6c-0.4,0.4-1,0.8-1.6,1.1
						c-0.6,0.3-1.4,0.4-2.3,0.4C170.2,236.8,169.7,236.7,169.2,236.6 M163.8,224.8v23.7h4v-11c0.2,0.1,0.5,0.1,0.9,0.2
						c0.4,0.1,0.7,0.1,1.2,0.1c0.4,0,0.9,0.1,1.3,0.1c0.5,0,0.9,0,1.3,0c1,0,1.9-0.1,2.9-0.4c0.9-0.3,1.8-0.7,2.5-1.2
						c0.7-0.5,1.3-1.2,1.8-2c0.5-0.8,0.7-1.7,0.7-2.8c0-1.1-0.2-2-0.7-2.9c-0.5-0.8-1.1-1.5-1.9-2.1c-0.8-0.6-1.7-1-2.8-1.3
						c-1.1-0.3-2.2-0.5-3.5-0.5H163.8z"/>
				</defs>
				<use xlink:href="#SVGID_47_"  style="overflow:visible;fill:#D89F47;"/>
				<clipPath id="SVGID_48_">
					<use xlink:href="#SVGID_47_"  style="overflow:visible;"/>
				</clipPath>
				<rect x="163.8" y="224.8" class="st30" width="16.4" height="23.7"/>
				<use xlink:href="#SVGID_47_"  style="overflow:visible;fill:none;stroke:#D89F47;stroke-width:0.6608;stroke-miterlimit:10;"/>
			</g>
			<g>
				<defs>
					<path id="SVGID_49_" d="M169.2,236.6c-0.5-0.1-1-0.2-1.4-0.4v-9.6h2.8c0.7,0,1.4,0.1,2.1,0.4c0.6,0.2,1.2,0.6,1.7,1.1
						c0.5,0.5,0.9,1,1.1,1.7c0.3,0.7,0.4,1.4,0.4,2.2c0,0.7-0.1,1.3-0.3,1.9c-0.2,0.6-0.5,1.1-0.9,1.6c-0.4,0.4-1,0.8-1.6,1.1
						c-0.6,0.3-1.4,0.4-2.3,0.4C170.2,236.8,169.7,236.7,169.2,236.6 M163.8,224.8v23.7h4v-11c0.2,0.1,0.5,0.1,0.9,0.2
						c0.4,0.1,0.7,0.1,1.2,0.1c0.4,0,0.9,0.1,1.3,0.1c0.5,0,0.9,0,1.3,0c1,0,1.9-0.1,2.9-0.4c0.9-0.3,1.8-0.7,2.5-1.2
						c0.7-0.5,1.3-1.2,1.8-2c0.5-0.8,0.7-1.7,0.7-2.8c0-1.1-0.2-2-0.7-2.9c-0.5-0.8-1.1-1.5-1.9-2.1c-0.8-0.6-1.7-1-2.8-1.3
						c-1.1-0.3-2.2-0.5-3.5-0.5H163.8z"/>
				</defs>
				<use xlink:href="#SVGID_49_"  style="overflow:visible;fill:#D89F47;"/>
				<clipPath id="SVGID_50_">
					<use xlink:href="#SVGID_49_"  style="overflow:visible;"/>
				</clipPath>
				<rect x="163.8" y="224.8" class="st31" width="16.4" height="23.7"/>
				<use xlink:href="#SVGID_49_"  style="overflow:visible;fill:none;stroke:#D89F47;stroke-width:0.6608;stroke-miterlimit:10;"/>
			</g>
			<g>
				<defs>
					<polygon id="SVGID_51_" points="183.7,224.8 183.7,248.5 200.1,248.5 200.1,247 187.6,247 187.6,236.4 196,236.4 196,234.8 
						187.6,234.8 187.6,226.4 200.1,226.4 200.1,224.8 					"/>
				</defs>
				<use xlink:href="#SVGID_51_"  style="overflow:visible;fill:#D89F47;"/>
				<clipPath id="SVGID_52_">
					<use xlink:href="#SVGID_51_"  style="overflow:visible;"/>
				</clipPath>
				<rect x="183.7" y="224.8" class="st32" width="16.5" height="23.7"/>
				<use xlink:href="#SVGID_51_"  style="overflow:visible;fill:none;stroke:#D89F47;stroke-width:0.6608;stroke-miterlimit:10;"/>
			</g>
			<g>
				<defs>
					<polygon id="SVGID_53_" points="183.7,224.8 183.7,248.5 200.1,248.5 200.1,247 187.6,247 187.6,236.4 196,236.4 196,234.8 
						187.6,234.8 187.6,226.4 200.1,226.4 200.1,224.8 					"/>
				</defs>
				<use xlink:href="#SVGID_53_"  style="overflow:visible;fill:#D89F47;"/>
				<clipPath id="SVGID_54_">
					<use xlink:href="#SVGID_53_"  style="overflow:visible;"/>
				</clipPath>
				<rect x="183.7" y="224.8" class="st33" width="16.5" height="23.7"/>
				<use xlink:href="#SVGID_53_"  style="overflow:visible;fill:none;stroke:#D89F47;stroke-width:0.6608;stroke-miterlimit:10;"/>
			</g>
			<g>
				<defs>
					<path id="SVGID_55_" d="M208.5,226.3h3.5c0.7,0,1.4,0.1,2,0.4c0.6,0.2,1.1,0.6,1.6,1c0.4,0.4,0.8,0.9,1,1.5
						c0.2,0.6,0.4,1.2,0.4,1.9c0,0.8-0.2,1.5-0.5,2.1c-0.3,0.6-0.7,1.2-1.3,1.6c-0.6,0.4-1.2,0.8-2,1c-0.8,0.2-1.6,0.4-2.5,0.4h-2.3
						V226.3z M204.5,224.8v23.7h4v-11.1h2.8l8.2,11.1h4.6l-8.6-11.5c0.9-0.2,1.6-0.5,2.4-0.9c0.7-0.4,1.3-0.8,1.8-1.3
						c0.5-0.5,0.9-1.1,1.2-1.7c0.3-0.6,0.4-1.3,0.4-2.1c0-0.9-0.2-1.7-0.5-2.5c-0.4-0.8-0.9-1.4-1.6-2c-0.7-0.6-1.6-1-2.7-1.3
						c-1.1-0.3-2.3-0.5-3.8-0.5H204.5z"/>
				</defs>
				<use xlink:href="#SVGID_55_"  style="overflow:visible;fill:#D89F47;"/>
				<clipPath id="SVGID_56_">
					<use xlink:href="#SVGID_55_"  style="overflow:visible;"/>
				</clipPath>
				<rect x="204.5" y="224.8" class="st34" width="19.6" height="23.7"/>
				<use xlink:href="#SVGID_55_"  style="overflow:visible;fill:none;stroke:#D89F47;stroke-width:0.6608;stroke-miterlimit:10;"/>
			</g>
			<g>
				<defs>
					<path id="SVGID_57_" d="M208.5,226.3h3.5c0.7,0,1.4,0.1,2,0.4c0.6,0.2,1.1,0.6,1.6,1c0.4,0.4,0.8,0.9,1,1.5
						c0.2,0.6,0.4,1.2,0.4,1.9c0,0.8-0.2,1.5-0.5,2.1c-0.3,0.6-0.7,1.2-1.3,1.6c-0.6,0.4-1.2,0.8-2,1c-0.8,0.2-1.6,0.4-2.5,0.4h-2.3
						V226.3z M204.5,224.8v23.7h4v-11.1h2.8l8.2,11.1h4.6l-8.6-11.5c0.9-0.2,1.6-0.5,2.4-0.9c0.7-0.4,1.3-0.8,1.8-1.3
						c0.5-0.5,0.9-1.1,1.2-1.7c0.3-0.6,0.4-1.3,0.4-2.1c0-0.9-0.2-1.7-0.5-2.5c-0.4-0.8-0.9-1.4-1.6-2c-0.7-0.6-1.6-1-2.7-1.3
						c-1.1-0.3-2.3-0.5-3.8-0.5H204.5z"/>
				</defs>
				<use xlink:href="#SVGID_57_"  style="overflow:visible;fill:#D89F47;"/>
				<clipPath id="SVGID_58_">
					<use xlink:href="#SVGID_57_"  style="overflow:visible;"/>
				</clipPath>
				<rect x="204.5" y="224.8" class="st35" width="19.6" height="23.7"/>
				<use xlink:href="#SVGID_57_"  style="overflow:visible;fill:none;stroke:#D89F47;stroke-width:0.6608;stroke-miterlimit:10;"/>
			</g>
			<g>
				<defs>
					<polygon id="SVGID_59_" points="223.3,224.8 223.3,226.4 231.9,226.4 231.9,248.5 235.9,248.5 235.9,226.4 244.5,226.4 
						244.5,224.8 					"/>
				</defs>
				<use xlink:href="#SVGID_59_"  style="overflow:visible;fill:#D89F47;"/>
				<clipPath id="SVGID_60_">
					<use xlink:href="#SVGID_59_"  style="overflow:visible;"/>
				</clipPath>
				<rect x="223.3" y="224.8" class="st36" width="21.1" height="23.7"/>
				<use xlink:href="#SVGID_59_"  style="overflow:visible;fill:none;stroke:#D89F47;stroke-width:0.6608;stroke-miterlimit:10;"/>
			</g>
			<g>
				<defs>
					<polygon id="SVGID_61_" points="223.3,224.8 223.3,226.4 231.9,226.4 231.9,248.5 235.9,248.5 235.9,226.4 244.5,226.4 
						244.5,224.8 					"/>
				</defs>
				<use xlink:href="#SVGID_61_"  style="overflow:visible;fill:#D89F47;"/>
				<clipPath id="SVGID_62_">
					<use xlink:href="#SVGID_61_"  style="overflow:visible;"/>
				</clipPath>
				<rect x="223.3" y="224.8" class="st37" width="21.1" height="23.7"/>
				<use xlink:href="#SVGID_61_"  style="overflow:visible;fill:none;stroke:#D89F47;stroke-width:0.6608;stroke-miterlimit:10;"/>
			</g>
			<g>
				<defs>
					<polygon id="SVGID_63_" points="265.7,224.8 257.5,236.9 249.3,224.8 245.2,224.8 254.7,238.7 254.7,248.5 258.7,248.5 
						258.7,238.3 267.9,224.8 					"/>
				</defs>
				<use xlink:href="#SVGID_63_"  style="overflow:visible;fill:#D89F47;"/>
				<clipPath id="SVGID_64_">
					<use xlink:href="#SVGID_63_"  style="overflow:visible;"/>
				</clipPath>
				<rect x="245.2" y="224.8" class="st38" width="22.6" height="23.7"/>
				<use xlink:href="#SVGID_63_"  style="overflow:visible;fill:none;stroke:#D89F47;stroke-width:0.6608;stroke-miterlimit:10;"/>
			</g>
			<g>
				<defs>
					<polygon id="SVGID_65_" points="265.7,224.8 257.5,236.9 249.3,224.8 245.2,224.8 254.7,238.7 254.7,248.5 258.7,248.5 
						258.7,238.3 267.9,224.8 					"/>
				</defs>
				<use xlink:href="#SVGID_65_"  style="overflow:visible;fill:#D89F47;"/>
				<clipPath id="SVGID_66_">
					<use xlink:href="#SVGID_65_"  style="overflow:visible;"/>
				</clipPath>
				<rect x="245.2" y="224.8" class="st39" width="22.6" height="23.7"/>
				<use xlink:href="#SVGID_65_"  style="overflow:visible;fill:none;stroke:#D89F47;stroke-width:0.6608;stroke-miterlimit:10;"/>
			</g>
		</g>
		<g>
			<g>
				<defs>
					<path id="SVGID_67_" d="M105.4,260.4l5.2,11.3h-10.6L105.4,260.4z M106.1,253.8l-13.8,29.3h2.4l4.5-9.6h12.3l4.4,9.6h4.9
						l-13.5-29.3H106.1z"/>
				</defs>
				<use xlink:href="#SVGID_67_"  style="overflow:visible;fill:#D89F47;"/>
				<clipPath id="SVGID_68_">
					<use xlink:href="#SVGID_67_"  style="overflow:visible;"/>
				</clipPath>
				<rect x="92.3" y="253.8" class="st40" width="28.5" height="29.3"/>
				<use xlink:href="#SVGID_67_"  style="overflow:visible;fill:none;stroke:#D89F47;stroke-width:0.6608;stroke-miterlimit:10;"/>
			</g>
			<g>
				<defs>
					<path id="SVGID_69_" d="M105.4,260.4l5.2,11.3h-10.6L105.4,260.4z M106.1,253.8l-13.8,29.3h2.4l4.5-9.6h12.3l4.4,9.6h4.9
						l-13.5-29.3H106.1z"/>
				</defs>
				<use xlink:href="#SVGID_69_"  style="overflow:visible;fill:#D89F47;"/>
				<clipPath id="SVGID_70_">
					<use xlink:href="#SVGID_69_"  style="overflow:visible;"/>
				</clipPath>
				<rect x="92.3" y="253.8" class="st41" width="28.5" height="29.3"/>
				<use xlink:href="#SVGID_69_"  style="overflow:visible;fill:none;stroke:#D89F47;stroke-width:0.6608;stroke-miterlimit:10;"/>
			</g>
			<g>
				<defs>
					<polygon id="SVGID_71_" points="156.3,254.5 148,276.4 140.2,256.6 132.7,276.3 124.1,254.5 119.3,254.5 130.7,283.4 
						132.3,283.4 139.1,265.5 146.2,283.4 147.7,283.4 158.7,254.5 					"/>
				</defs>
				<use xlink:href="#SVGID_71_"  style="overflow:visible;fill:#D89F47;"/>
				<clipPath id="SVGID_72_">
					<use xlink:href="#SVGID_71_"  style="overflow:visible;"/>
				</clipPath>
				<rect x="119.3" y="254.5" class="st42" width="39.4" height="28.9"/>
				<use xlink:href="#SVGID_71_"  style="overflow:visible;fill:none;stroke:#D89F47;stroke-width:0.6608;stroke-miterlimit:10;"/>
			</g>
			<g>
				<defs>
					<polygon id="SVGID_73_" points="156.3,254.5 148,276.4 140.2,256.6 132.7,276.3 124.1,254.5 119.3,254.5 130.7,283.4 
						132.3,283.4 139.1,265.5 146.2,283.4 147.7,283.4 158.7,254.5 					"/>
				</defs>
				<use xlink:href="#SVGID_73_"  style="overflow:visible;fill:#D89F47;"/>
				<clipPath id="SVGID_74_">
					<use xlink:href="#SVGID_73_"  style="overflow:visible;"/>
				</clipPath>
				<rect x="119.3" y="254.5" class="st43" width="39.4" height="28.9"/>
				<use xlink:href="#SVGID_73_"  style="overflow:visible;fill:none;stroke:#D89F47;stroke-width:0.6608;stroke-miterlimit:10;"/>
			</g>
			<g>
				<defs>
					<path id="SVGID_75_" d="M170.4,260.4l5.2,11.3H165L170.4,260.4z M171,253.8l-13.8,29.3h2.4l4.5-9.6h12.3l4.4,9.6h4.9
						l-13.5-29.3H171z"/>
				</defs>
				<use xlink:href="#SVGID_75_"  style="overflow:visible;fill:#D89F47;"/>
				<clipPath id="SVGID_76_">
					<use xlink:href="#SVGID_75_"  style="overflow:visible;"/>
				</clipPath>
				<rect x="157.2" y="253.8" class="st44" width="28.5" height="29.3"/>
				<use xlink:href="#SVGID_75_"  style="overflow:visible;fill:none;stroke:#D89F47;stroke-width:0.6608;stroke-miterlimit:10;"/>
			</g>
			<g>
				<defs>
					<path id="SVGID_77_" d="M170.4,260.4l5.2,11.3H165L170.4,260.4z M171,253.8l-13.8,29.3h2.4l4.5-9.6h12.3l4.4,9.6h4.9
						l-13.5-29.3H171z"/>
				</defs>
				<use xlink:href="#SVGID_77_"  style="overflow:visible;fill:#D89F47;"/>
				<clipPath id="SVGID_78_">
					<use xlink:href="#SVGID_77_"  style="overflow:visible;"/>
				</clipPath>
				<rect x="157.2" y="253.8" class="st45" width="28.5" height="29.3"/>
				<use xlink:href="#SVGID_77_"  style="overflow:visible;fill:none;stroke:#D89F47;stroke-width:0.6608;stroke-miterlimit:10;"/>
			</g>
			<g>
				<defs>
					<path id="SVGID_79_" d="M194.2,256.3h4.2c0.9,0,1.7,0.1,2.4,0.4c0.7,0.3,1.4,0.7,1.9,1.2c0.5,0.5,1,1.1,1.3,1.9
						c0.3,0.7,0.5,1.5,0.5,2.4c0,0.9-0.2,1.8-0.6,2.5c-0.4,0.8-0.9,1.4-1.6,1.9c-0.7,0.5-1.5,0.9-2.4,1.2c-0.9,0.3-1.9,0.4-3,0.4
						h-2.8V256.3z M189.4,254.5v28.7h4.8v-13.5h3.4l10,13.5h5.6l-10.4-13.9c1-0.2,2-0.6,2.9-1.1c0.9-0.5,1.6-1,2.2-1.6
						c0.6-0.6,1.1-1.3,1.4-2.1c0.3-0.8,0.5-1.6,0.5-2.5c0-1.1-0.2-2.1-0.7-3c-0.4-0.9-1.1-1.7-2-2.4c-0.9-0.7-1.9-1.2-3.2-1.6
						c-1.3-0.4-2.8-0.6-4.5-0.6H189.4z"/>
				</defs>
				<use xlink:href="#SVGID_79_"  style="overflow:visible;fill:#D89F47;"/>
				<clipPath id="SVGID_80_">
					<use xlink:href="#SVGID_79_"  style="overflow:visible;"/>
				</clipPath>
				<rect x="189.4" y="254.5" class="st46" width="23.7" height="28.7"/>
				<use xlink:href="#SVGID_79_"  style="overflow:visible;fill:none;stroke:#D89F47;stroke-width:0.6608;stroke-miterlimit:10;"/>
			</g>
			<g>
				<defs>
					<path id="SVGID_81_" d="M194.2,256.3h4.2c0.9,0,1.7,0.1,2.4,0.4c0.7,0.3,1.4,0.7,1.9,1.2c0.5,0.5,1,1.1,1.3,1.9
						c0.3,0.7,0.5,1.5,0.5,2.4c0,0.9-0.2,1.8-0.6,2.5c-0.4,0.8-0.9,1.4-1.6,1.9c-0.7,0.5-1.5,0.9-2.4,1.2c-0.9,0.3-1.9,0.4-3,0.4
						h-2.8V256.3z M189.4,254.5v28.7h4.8v-13.5h3.4l10,13.5h5.6l-10.4-13.9c1-0.2,2-0.6,2.9-1.1c0.9-0.5,1.6-1,2.2-1.6
						c0.6-0.6,1.1-1.3,1.4-2.1c0.3-0.8,0.5-1.6,0.5-2.5c0-1.1-0.2-2.1-0.7-3c-0.4-0.9-1.1-1.7-2-2.4c-0.9-0.7-1.9-1.2-3.2-1.6
						c-1.3-0.4-2.8-0.6-4.5-0.6H189.4z"/>
				</defs>
				<use xlink:href="#SVGID_81_"  style="overflow:visible;fill:#D89F47;"/>
				<clipPath id="SVGID_82_">
					<use xlink:href="#SVGID_81_"  style="overflow:visible;"/>
				</clipPath>
				<rect x="189.4" y="254.5" class="st47" width="23.7" height="28.7"/>
				<use xlink:href="#SVGID_81_"  style="overflow:visible;fill:none;stroke:#D89F47;stroke-width:0.6608;stroke-miterlimit:10;"/>
			</g>
			<g>
				<defs>
					<path id="SVGID_83_" d="M221.6,256.6h5.2c1.7,0,3.3,0.3,4.7,0.9c1.4,0.6,2.7,1.4,3.7,2.5c1,1.1,1.8,2.3,2.4,3.8
						c0.6,1.5,0.9,3.1,0.9,4.8c0,2-0.3,3.8-0.9,5.3c-0.6,1.5-1.4,2.8-2.5,3.9c-1.1,1-2.3,1.8-3.7,2.4c-1.4,0.5-2.9,0.8-4.6,0.8h-5.1
						V256.6z M216.8,254.5v28.7h10.7c2.7,0,5-0.4,7.1-1.1c2.1-0.8,3.8-1.8,5.2-3.1c1.4-1.3,2.5-2.9,3.2-4.6c0.7-1.8,1.1-3.7,1.1-5.7
						c0-2.1-0.4-4.1-1.2-5.9c-0.8-1.8-2-3.4-3.7-4.7c-1.4-1.2-3.2-2.1-5.3-2.6c-2.1-0.5-4.7-0.8-7.6-0.8H216.8z"/>
				</defs>
				<use xlink:href="#SVGID_83_"  style="overflow:visible;fill:#D89F47;"/>
				<clipPath id="SVGID_84_">
					<use xlink:href="#SVGID_83_"  style="overflow:visible;"/>
				</clipPath>
				<rect x="216.8" y="254.5" class="st48" width="27.3" height="28.7"/>
				<use xlink:href="#SVGID_83_"  style="overflow:visible;fill:none;stroke:#D89F47;stroke-width:0.6608;stroke-miterlimit:10;"/>
			</g>
			<g>
				<defs>
					<path id="SVGID_85_" d="M221.6,256.6h5.2c1.7,0,3.3,0.3,4.7,0.9c1.4,0.6,2.7,1.4,3.7,2.5c1,1.1,1.8,2.3,2.4,3.8
						c0.6,1.5,0.9,3.1,0.9,4.8c0,2-0.3,3.8-0.9,5.3c-0.6,1.5-1.4,2.8-2.5,3.9c-1.1,1-2.3,1.8-3.7,2.4c-1.4,0.5-2.9,0.8-4.6,0.8h-5.1
						V256.6z M216.8,254.5v28.7h10.7c2.7,0,5-0.4,7.1-1.1c2.1-0.8,3.8-1.8,5.2-3.1c1.4-1.3,2.5-2.9,3.2-4.6c0.7-1.8,1.1-3.7,1.1-5.7
						c0-2.1-0.4-4.1-1.2-5.9c-0.8-1.8-2-3.4-3.7-4.7c-1.4-1.2-3.2-2.1-5.3-2.6c-2.1-0.5-4.7-0.8-7.6-0.8H216.8z"/>
				</defs>
				<use xlink:href="#SVGID_85_"  style="overflow:visible;fill:#D89F47;"/>
				<clipPath id="SVGID_86_">
					<use xlink:href="#SVGID_85_"  style="overflow:visible;"/>
				</clipPath>
				<rect x="216.8" y="254.5" class="st49" width="27.3" height="28.7"/>
				<use xlink:href="#SVGID_85_"  style="overflow:visible;fill:none;stroke:#D89F47;stroke-width:0.6608;stroke-miterlimit:10;"/>
			</g>
			<g>
				<defs>
					<path id="SVGID_87_" d="M253.3,254.4c-1.2,0.4-2.1,0.9-2.9,1.6c-0.8,0.7-1.4,1.5-1.8,2.4c-0.4,0.9-0.6,2-0.6,3.1
						c0,1.1,0.2,2.1,0.7,2.9c0.4,0.8,1,1.6,1.8,2.3c0.7,0.7,1.6,1.3,2.5,1.9c0.9,0.6,1.9,1.1,2.9,1.6c1,0.5,2,1,2.9,1.5
						c0.9,0.5,1.8,1,2.5,1.6c0.7,0.6,1.3,1.2,1.8,1.9c0.4,0.7,0.7,1.5,0.7,2.3c0,0.7-0.2,1.4-0.5,1.9c-0.3,0.6-0.8,1-1.3,1.4
						c-0.5,0.4-1.2,0.7-1.8,0.9c-0.7,0.2-1.4,0.3-2.1,0.3c-0.9,0-1.8-0.1-2.7-0.4c-0.8-0.3-1.6-0.7-2.3-1.2
						c-0.7-0.5-1.3-1.1-1.8-1.9c-0.5-0.7-0.9-1.6-1.2-2.5l-2.6,1.1c0.4,1.1,0.9,2,1.5,2.8c0.6,0.8,1.3,1.5,2.1,2.1
						c0.8,0.6,1.8,1,2.9,1.3c1.1,0.3,2.3,0.5,3.7,0.5c1.7,0,3.2-0.2,4.5-0.7c1.3-0.4,2.4-1,3.2-1.8c0.9-0.7,1.5-1.6,1.9-2.6
						c0.4-1,0.7-2.1,0.7-3.2c0-1-0.2-1.9-0.7-2.7c-0.5-0.8-1.1-1.6-1.8-2.2c-0.8-0.7-1.6-1.3-2.6-1.9c-1-0.6-2-1.1-3-1.7
						c-1-0.5-2-1.1-3-1.6c-1-0.5-1.8-1.1-2.6-1.6c-0.8-0.6-1.4-1.2-1.8-1.8c-0.5-0.6-0.7-1.3-0.7-2.1c0-0.5,0.1-1.1,0.3-1.6
						c0.2-0.5,0.6-1,1-1.4c0.4-0.4,1-0.7,1.7-1c0.7-0.3,1.5-0.4,2.4-0.4c1,0,1.9,0.1,2.7,0.4c0.8,0.3,1.5,0.7,2.2,1.2
						c0.6,0.5,1.1,1.1,1.6,1.9c0.4,0.7,0.8,1.5,1.1,2.4l2.5-1.1c-0.7-2.2-1.8-3.8-3.4-4.9c-1.6-1.1-3.7-1.7-6.4-1.7
						C255.8,253.8,254.4,254,253.3,254.4"/>
				</defs>
				<use xlink:href="#SVGID_87_"  style="overflow:visible;fill:#D89F47;"/>
				<clipPath id="SVGID_88_">
					<use xlink:href="#SVGID_87_"  style="overflow:visible;"/>
				</clipPath>
				<rect x="247.4" y="253.8" class="st50" width="20.4" height="30"/>
				<use xlink:href="#SVGID_87_"  style="overflow:visible;fill:none;stroke:#D89F47;stroke-width:0.6608;stroke-miterlimit:10;"/>
			</g>
			<g>
				<defs>
					<path id="SVGID_89_" d="M253.3,254.4c-1.2,0.4-2.1,0.9-2.9,1.6c-0.8,0.7-1.4,1.5-1.8,2.4c-0.4,0.9-0.6,2-0.6,3.1
						c0,1.1,0.2,2.1,0.7,2.9c0.4,0.8,1,1.6,1.8,2.3c0.7,0.7,1.6,1.3,2.5,1.9c0.9,0.6,1.9,1.1,2.9,1.6c1,0.5,2,1,2.9,1.5
						c0.9,0.5,1.8,1,2.5,1.6c0.7,0.6,1.3,1.2,1.8,1.9c0.4,0.7,0.7,1.5,0.7,2.3c0,0.7-0.2,1.4-0.5,1.9c-0.3,0.6-0.8,1-1.3,1.4
						c-0.5,0.4-1.2,0.7-1.8,0.9c-0.7,0.2-1.4,0.3-2.1,0.3c-0.9,0-1.8-0.1-2.7-0.4c-0.8-0.3-1.6-0.7-2.3-1.2
						c-0.7-0.5-1.3-1.1-1.8-1.9c-0.5-0.7-0.9-1.6-1.2-2.5l-2.6,1.1c0.4,1.1,0.9,2,1.5,2.8c0.6,0.8,1.3,1.5,2.1,2.1
						c0.8,0.6,1.8,1,2.9,1.3c1.1,0.3,2.3,0.5,3.7,0.5c1.7,0,3.2-0.2,4.5-0.7c1.3-0.4,2.4-1,3.2-1.8c0.9-0.7,1.5-1.6,1.9-2.6
						c0.4-1,0.7-2.1,0.7-3.2c0-1-0.2-1.9-0.7-2.7c-0.5-0.8-1.1-1.6-1.8-2.2c-0.8-0.7-1.6-1.3-2.6-1.9c-1-0.6-2-1.1-3-1.7
						c-1-0.5-2-1.1-3-1.6c-1-0.5-1.8-1.1-2.6-1.6c-0.8-0.6-1.4-1.2-1.8-1.8c-0.5-0.6-0.7-1.3-0.7-2.1c0-0.5,0.1-1.1,0.3-1.6
						c0.2-0.5,0.6-1,1-1.4c0.4-0.4,1-0.7,1.7-1c0.7-0.3,1.5-0.4,2.4-0.4c1,0,1.9,0.1,2.7,0.4c0.8,0.3,1.5,0.7,2.2,1.2
						c0.6,0.5,1.1,1.1,1.6,1.9c0.4,0.7,0.8,1.5,1.1,2.4l2.5-1.1c-0.7-2.2-1.8-3.8-3.4-4.9c-1.6-1.1-3.7-1.7-6.4-1.7
						C255.8,253.8,254.4,254,253.3,254.4"/>
				</defs>
				<use xlink:href="#SVGID_89_"  style="overflow:visible;fill:#D89F47;"/>
				<clipPath id="SVGID_90_">
					<use xlink:href="#SVGID_89_"  style="overflow:visible;"/>
				</clipPath>
				<rect x="247.4" y="253.8" class="st51" width="20.4" height="30"/>
				<use xlink:href="#SVGID_89_"  style="overflow:visible;fill:none;stroke:#D89F47;stroke-width:0.6608;stroke-miterlimit:10;"/>
			</g>
		</g>
	</g>
	<g>
		<rect x="56.5" y="67" class="st52" width="247" height="37.4"/>
		<g>
			<path class="st53" d="M224.8,67v27.2h3.8v-9.8c0.2-1.6,1.5-3.1,3.2-3.1c1.8,0,3.2,1.4,3.2,3.1v9.8h3.7l0-11.3
				c-0.4-3.2-2.7-5.4-5.9-5.4c-1.7,0-3.2,0.6-4.3,1.7V67H224.8z"/>
			<path class="st53" d="M106.3,67v27.2h3.8v-9.8c0.2-1.6,1.5-3.1,3.2-3.1c1.8,0,3.2,1.4,3.2,3.1l0,9.8h3.7l0-11.3
				c-0.4-3.2-2.7-5.4-5.9-5.4c-1.7,0-3.2,0.6-4.3,1.7V67H106.3z"/>
			<path class="st53" d="M131.8,81.3c-2.5,0-4.5,2.1-4.5,4.7c0,2.6,2,4.7,4.5,4.7c2.5,0,4.5-2.1,4.5-4.7
				C136.3,83.4,134.3,81.3,131.8,81.3z M140,94.1l0-16.3l-3.7,0l0,1.7c-1.4-1.3-2.5-2-4.6-2c-4.5,0-8.3,3.8-8.3,8.5
				c0,4.7,3.8,8.5,8.3,8.5c2,0,3.1-0.7,4.6-1.9l0,1.6L140,94.1z"/>
			<path class="st53" d="M158.1,94.1l0-10.8c-0.1-3.2-2.8-5.8-6.2-5.8c-1.8,0-3.4,0.7-4.5,1.9l0-1.5l-3.5,0l0,16.3h3.8l0-9.6
				c0-1.7,1.5-3.1,3.4-3.1c1.9,0,3.4,1.4,3.4,3.1l0,9.6H158.1z"/>
			<path class="st53" d="M174,88.8c0-2.6-1.9-4-4.5-4.5l-2.5-0.5c-1.1-0.2-2.4-0.5-2.4-1.6c0-0.8,1.1-1.5,2.4-1.5
				c1.3,0,2.6,1,2.6,1.8l4.1,0c-0.4-2.9-3.2-5.1-6.6-5.1c-3.7,0-6.3,2.3-6.2,5.6c0.1,2.3,2.6,3.7,5.3,4.3l0.9,0.2
				c1.9,0.3,3,0.7,3.1,1.6c0.1,1.2-1,1.9-2.6,1.9c-1.7,0-3-1.1-3-2.4l-3.9,0c0,3.2,3.3,5.8,7,5.8C171.3,94.5,174,92,174,88.8z"/>
			<path class="st53" d="M189.1,85.9c0,2.6-2,4.6-4.5,4.6c-2.5,0-4.5-2.1-4.5-4.6c0-2.6,2-4.6,4.5-4.6
				C187.1,81.2,189.1,83.3,189.1,85.9z M192.7,77.8h-3.4l0,1.6c-1.2-1.3-2.8-2-4.9-2c-4.3,0-8,4-8,8.3c0,4.6,3.6,8.3,8,8.3
				c1.8,0,3.6-1,4.9-2.5c0,0,0,0.2,0,0.3c0,2.8-2.2,5.1-5,5.1c-1.5,0-2.8-0.7-3.8-1.7l-3.9,0c1,3,4.1,5.1,7.8,5.1
				c4.2,0,8.3-3.9,8.3-7.3l0-0.2L192.7,77.8z"/>
			<path class="st53" d="M204.4,81v-3.6c-1.9,0-3.4,0.7-4.1,1.8v-1.4h-3.5v16.3h3.9l0-10.2C200.7,82.4,202.3,81.1,204.4,81z"/>
			<path class="st53" d="M213.4,81.2c-2.5,0-4.5,2.1-4.5,4.7c0,2.6,2,4.7,4.5,4.7c2.5,0,4.5-2.1,4.5-4.7
				C217.9,83.3,215.9,81.2,213.4,81.2z M221.6,85.9c0-4.7-3.7-8.5-8.2-8.5c-4.5,0-8.2,3.8-8.2,8.5c0,4.7,3.7,8.5,8.2,8.5
				C217.9,94.4,221.6,90.6,221.6,85.9z"/>
			<path class="st53" d="M241.8,85.9c0,4.7,3.6,8.5,8.1,8.5c3.4,0,6.4-2.2,7.6-5.4l-4,0c-0.8,1-2.1,1.7-3.6,1.7
				c-2.1,0-3.9-1.4-4.3-3.3l12.4,0c0.1-0.5,0.1-1,0.1-1.5c0-4.7-3.6-8.5-8.1-8.5C245.4,77.4,241.8,81.2,241.8,85.9z M249.9,81.1
				c-2,0-3.6,1.3-4.2,2.9l8.4,0C253.6,82.3,251.9,81.1,249.9,81.1z"/>
		</g>
	</g>
	<g>
		<path class="st54" d="M130.9,132.3v4.3c0,0.9,0.1,1.5,0.3,1.7c0.3,0.3,0.7,0.5,1.2,0.5h0.6v0.4h-6.3v-0.4h0.6
			c0.6,0,1.1-0.2,1.3-0.6c0.1-0.2,0.2-0.8,0.2-1.6v-9.5c0-0.9-0.1-1.5-0.3-1.7c-0.3-0.3-0.7-0.5-1.3-0.5h-0.6v-0.4h5.4
			c1.3,0,2.3,0.1,3.1,0.4c0.8,0.3,1.4,0.7,1.9,1.4c0.5,0.6,0.8,1.4,0.8,2.3c0,1.2-0.4,2.2-1.2,2.9c-0.8,0.7-1.9,1.1-3.3,1.1
			c-0.4,0-0.7,0-1.1-0.1C131.8,132.5,131.4,132.4,130.9,132.3 M130.9,131.7c0.4,0.1,0.7,0.1,1,0.2c0.3,0,0.5,0.1,0.8,0.1
			c0.7,0,1.4-0.3,1.9-0.9c0.5-0.6,0.8-1.3,0.8-2.3c0-0.6-0.1-1.2-0.4-1.8c-0.3-0.5-0.6-1-1.1-1.2c-0.5-0.3-1-0.4-1.6-0.4
			c-0.4,0-0.8,0.1-1.4,0.2V131.7z"/>
		<path class="st54" d="M153.6,139.2h-3.9l-5-6.9c-0.4,0-0.7,0-0.9,0c-0.1,0-0.2,0-0.3,0c-0.1,0-0.2,0-0.3,0v4.3
			c0,0.9,0.1,1.5,0.3,1.7c0.3,0.3,0.7,0.5,1.2,0.5h0.6v0.4h-6.3v-0.4h0.6c0.6,0,1.1-0.2,1.3-0.6c0.2-0.2,0.2-0.8,0.2-1.6v-9.5
			c0-0.9-0.1-1.5-0.3-1.7c-0.3-0.3-0.7-0.5-1.3-0.5h-0.6v-0.4h5.3c1.6,0,2.7,0.1,3.4,0.3c0.7,0.2,1.4,0.6,1.9,1.3
			c0.5,0.6,0.8,1.3,0.8,2.2c0,0.9-0.3,1.7-0.9,2.3c-0.6,0.7-1.5,1.1-2.7,1.4l3,4.2c0.7,1,1.3,1.6,1.8,1.9c0.5,0.3,1.1,0.5,1.9,0.6
			V139.2z M143.2,131.6c0.1,0,0.3,0,0.4,0c0.1,0,0.2,0,0.2,0c1.4,0,2.5-0.3,3.2-0.9c0.7-0.6,1.1-1.4,1.1-2.3c0-0.9-0.3-1.7-0.9-2.2
			c-0.6-0.6-1.3-0.9-2.3-0.9c-0.4,0-1,0.1-1.7,0.2V131.6z"/>
		<path class="st54" d="M158.1,125.3v5.8h3.2c0.8,0,1.4-0.1,1.7-0.4c0.4-0.3,0.6-0.9,0.6-1.7h0.4v5.1h-0.4c-0.1-0.7-0.2-1.2-0.3-1.4
			c-0.1-0.3-0.3-0.5-0.6-0.6c-0.3-0.1-0.7-0.2-1.4-0.2h-3.2v4.8c0,0.6,0,1,0.1,1.2c0.1,0.1,0.2,0.3,0.3,0.3c0.1,0.1,0.4,0.1,0.8,0.1
			h2.5c0.8,0,1.4-0.1,1.8-0.2c0.4-0.1,0.7-0.3,1.1-0.7c0.4-0.4,0.9-1.1,1.4-2h0.4l-1.3,3.7h-11.3v-0.4h0.5c0.3,0,0.7-0.1,1-0.2
			c0.2-0.1,0.4-0.3,0.5-0.5c0.1-0.2,0.1-0.7,0.1-1.4v-9.5c0-0.9-0.1-1.5-0.3-1.7c-0.3-0.3-0.7-0.4-1.3-0.4h-0.5v-0.4h11.3l0.2,3.2
			h-0.4c-0.2-0.8-0.3-1.3-0.5-1.6c-0.2-0.3-0.5-0.5-0.8-0.7c-0.3-0.1-0.8-0.2-1.5-0.2H158.1z"/>
		<path class="st54" d="M177.1,124.2v5.1h-0.4c-0.1-1-0.4-1.7-0.7-2.3c-0.3-0.6-0.8-1-1.4-1.4c-0.6-0.3-1.3-0.5-1.9-0.5
			c-0.7,0-1.4,0.2-1.9,0.7s-0.7,1-0.7,1.6c0,0.4,0.2,0.9,0.5,1.2c0.4,0.5,1.5,1.3,3.2,2.2c1.4,0.7,2.3,1.3,2.8,1.7
			c0.5,0.4,0.9,0.9,1.2,1.4c0.3,0.5,0.4,1.1,0.4,1.7c0,1.1-0.4,2.1-1.3,2.9c-0.9,0.8-2,1.2-3.3,1.2c-0.4,0-0.8,0-1.2-0.1
			c-0.2,0-0.7-0.2-1.4-0.4c-0.7-0.2-1.1-0.3-1.3-0.3c-0.2,0-0.3,0.1-0.4,0.2c-0.1,0.1-0.2,0.3-0.2,0.7h-0.4v-5h0.4
			c0.2,1.1,0.4,1.8,0.8,2.4c0.3,0.5,0.8,1,1.5,1.3c0.7,0.3,1.4,0.5,2.1,0.5c0.9,0,1.6-0.2,2.1-0.7c0.5-0.5,0.8-1,0.8-1.7
			c0-0.4-0.1-0.7-0.3-1.1c-0.2-0.4-0.5-0.7-0.9-1c-0.3-0.2-1-0.7-2.3-1.4c-1.3-0.7-2.1-1.3-2.7-1.7c-0.5-0.4-0.9-0.9-1.2-1.4
			c-0.3-0.5-0.4-1.1-0.4-1.7c0-1.1,0.4-2,1.2-2.7c0.8-0.8,1.8-1.1,3.1-1.1c0.8,0,1.6,0.2,2.5,0.6c0.4,0.2,0.7,0.3,0.9,0.3
			c0.2,0,0.3-0.1,0.5-0.2c0.1-0.1,0.2-0.3,0.3-0.7H177.1z"/>
		<path class="st54" d="M183.9,125.3v5.8h3.2c0.8,0,1.4-0.1,1.7-0.4c0.4-0.3,0.6-0.9,0.6-1.7h0.4v5.1h-0.4c-0.1-0.7-0.2-1.2-0.3-1.4
			c-0.1-0.3-0.3-0.5-0.6-0.6c-0.3-0.1-0.7-0.2-1.4-0.2h-3.2v4.8c0,0.6,0,1,0.1,1.2c0.1,0.1,0.2,0.3,0.3,0.3c0.1,0.1,0.4,0.1,0.8,0.1
			h2.5c0.8,0,1.4-0.1,1.8-0.2c0.4-0.1,0.7-0.3,1.1-0.7c0.4-0.4,0.9-1.1,1.4-2h0.4l-1.3,3.7h-11.3v-0.4h0.5c0.3,0,0.7-0.1,1-0.2
			c0.2-0.1,0.4-0.3,0.5-0.5c0.1-0.2,0.1-0.7,0.1-1.4v-9.5c0-0.9-0.1-1.5-0.3-1.7c-0.3-0.3-0.7-0.4-1.3-0.4h-0.5v-0.4H191l0.2,3.2
			h-0.4c-0.2-0.8-0.3-1.3-0.5-1.6c-0.2-0.3-0.5-0.5-0.8-0.7c-0.3-0.1-0.8-0.2-1.5-0.2H183.9z"/>
		<path class="st54" d="M192.5,124.5h4l9,11v-8.4c0-0.9-0.1-1.5-0.3-1.7c-0.3-0.3-0.7-0.5-1.3-0.5h-0.5v-0.4h5.1v0.4h-0.5
			c-0.6,0-1.1,0.2-1.3,0.6c-0.2,0.2-0.2,0.8-0.2,1.6v12.3H206l-9.7-11.8v9c0,0.9,0.1,1.5,0.3,1.7c0.3,0.3,0.7,0.5,1.3,0.5h0.5v0.4
			h-5.1v-0.4h0.5c0.6,0,1.1-0.2,1.3-0.6c0.2-0.2,0.2-0.8,0.2-1.6v-10.2c-0.4-0.5-0.7-0.8-1-1c-0.2-0.2-0.5-0.3-1-0.4
			c-0.2-0.1-0.5-0.1-1-0.1V124.5z"/>
		<path class="st54" d="M221.5,124.5l0.2,3.4h-0.4c-0.1-0.6-0.2-1-0.3-1.3c-0.2-0.4-0.5-0.7-0.9-0.9c-0.4-0.2-0.9-0.3-1.5-0.3h-2.1
			v11.2c0,0.9,0.1,1.5,0.3,1.7c0.3,0.3,0.7,0.5,1.3,0.5h0.5v0.4h-6.2v-0.4h0.5c0.6,0,1.1-0.2,1.3-0.6c0.2-0.2,0.2-0.8,0.2-1.6v-11.2
			h-1.8c-0.7,0-1.2,0.1-1.5,0.2c-0.4,0.1-0.7,0.4-1,0.8c-0.3,0.4-0.4,0.9-0.5,1.6h-0.4l0.2-3.4H221.5z"/>
		<path class="st54" d="M232.4,124.2v5.1H232c-0.1-1-0.4-1.7-0.7-2.3c-0.3-0.6-0.8-1-1.4-1.4c-0.6-0.3-1.3-0.5-1.9-0.5
			c-0.7,0-1.4,0.2-1.9,0.7s-0.7,1-0.7,1.6c0,0.4,0.2,0.9,0.5,1.2c0.4,0.5,1.5,1.3,3.2,2.2c1.4,0.7,2.3,1.3,2.8,1.7
			c0.5,0.4,0.9,0.9,1.2,1.4c0.3,0.5,0.4,1.1,0.4,1.7c0,1.1-0.4,2.1-1.3,2.9c-0.9,0.8-2,1.2-3.3,1.2c-0.4,0-0.8,0-1.2-0.1
			c-0.2,0-0.7-0.2-1.4-0.4c-0.7-0.2-1.1-0.3-1.3-0.3c-0.2,0-0.3,0.1-0.4,0.2c-0.1,0.1-0.2,0.3-0.2,0.7h-0.4v-5h0.4
			c0.2,1.1,0.4,1.8,0.8,2.4c0.3,0.5,0.8,1,1.5,1.3c0.7,0.3,1.4,0.5,2.1,0.5c0.9,0,1.6-0.2,2.1-0.7c0.5-0.5,0.8-1,0.8-1.7
			c0-0.4-0.1-0.7-0.3-1.1c-0.2-0.4-0.5-0.7-0.9-1c-0.3-0.2-1-0.7-2.3-1.4c-1.3-0.7-2.1-1.3-2.7-1.7c-0.5-0.4-0.9-0.9-1.2-1.4
			c-0.3-0.5-0.4-1.1-0.4-1.7c0-1.1,0.4-2,1.2-2.7c0.8-0.8,1.8-1.1,3.1-1.1c0.8,0,1.6,0.2,2.5,0.6c0.4,0.2,0.7,0.3,0.9,0.3
			c0.2,0,0.3-0.1,0.5-0.2c0.1-0.1,0.2-0.3,0.3-0.7H232.4z"/>
	</g>
</g>
</svg>
