<?xml version="1.0" encoding="utf-8"?>
<!-- Generator: Adobe Illustrator 19.0.0, SVG Export Plug-In . SVG Version: 6.00 Build 0)  -->
<svg version="1.1" id="Layer_1" xmlns="http://www.w3.org/2000/svg" xmlns:xlink="http://www.w3.org/1999/xlink" x="0px" y="0px"
	 width="25px" height="52px" viewBox="314.5 -98.3 25 52" style="enable-background:new 314.5 -98.3 25 52;" xml:space="preserve">
<style type="text/css">
	.st0{fill:#FFFFFF;}
</style>
<polygon class="st0" points="339.4,-97.6 338.7,-98.3 314.5,-74.1 338.6,-74.1 338.6,-46.3 339.5,-46.3 339.5,-75 316.8,-75 "/>
</svg>
