<?xml version="1.0" encoding="utf-8"?>
<!-- Generator: Adobe Illustrator 19.0.0, SVG Export Plug-In . SVG Version: 6.00 Build 0)  -->
<svg version="1.1" id="Layer_1" xmlns="http://www.w3.org/2000/svg" xmlns:xlink="http://www.w3.org/1999/xlink" x="0px" y="0px"
	 width="108px" height="27px" viewBox="82 10.5 108 27" style="enable-background:new 82 10.5 108 27;" xml:space="preserve">
<style type="text/css">
	.st0{fill:#006B4E;}
</style>
<title>2016-cbre-melbourne-city-sales</title>
<path class="st0" d="M107.2,30.9v6.4H107h-8h-2.2c-2.5,0-5-0.5-7.3-1.5c-3.8-1.7-6.5-5.2-7.3-9.2c-0.1-0.9-0.2-1.8-0.2-2.7
	c0-2.9,0.9-5.7,2.6-8c1.4-1.8,3.2-3.3,5.3-4.3c1.8-0.7,3.7-1,5.6-1.1H107h0.2v6.1H107c-0.1,0-10.3-0.1-12.1,0.1
	c-3.9,0.5-6.4,3.2-6.4,6.9c0,3,1.7,6.6,6.6,7.1c3,0.3,11.9,0.1,12,0.1L107.2,30.9z"/>
<path class="st0" d="M158.5,23.5c2.5-0.9,4.1-3.3,4-5.9c0-5.8-5-7-9.6-7l0,0h-14.2v26.8h6.5V26.6h7.2c2.1,0,3.7,1.7,3.7,3.8v7h6.4
	v-8.6C162.4,24.7,158.5,23.5,158.5,23.5z M154.3,20.8h-9.2v-4.3h9.2c1.1,0,2,0.8,2.1,1.9V19C156.2,20,155.3,20.7,154.3,20.8z"/>
<polygon class="st0" points="166.5,37.4 190,37.4 190,31.3 173,31.3 173,26.6 188.3,26.6 188.3,20.7 173,20.7 173,16.4 190,16.4 
	190,10.6 166.5,10.6 "/>
<path class="st0" d="M131.1,23.6c3.4-1.1,4-4,4-6.3c0-3.6-2.5-6.6-10-6.6h-13.9v26.8h13.9c7.5,0,10.3-3.8,10.3-7.7
	C135.4,26.9,133.7,24.5,131.1,23.6z M126.8,31.1L126.8,31.1h-8.9v-4.5h9.1l0,0c1.1,0.1,2,1.1,2,2.2C129,30.1,128,31.1,126.8,31.1z
	 M127.2,20.8h-9.3v-4.4h9.4l0,0c1,0.2,1.8,1.1,1.8,2.1C129.1,19.7,128.3,20.6,127.2,20.8z"/>
</svg>
