<?xml version="1.0" standalone="no"?>
<!DOCTYPE svg PUBLIC "-//W3C//DTD SVG 1.1//EN" "http://www.w3.org/Graphics/SVG/1.1/DTD/svg11.dtd" >
<svg xmlns="http://www.w3.org/2000/svg">
<metadata>Generated by IcoMoon</metadata>
<defs>
<font id="ms" horiz-adv-x="1024">
<font-face units-per-em="1024" ascent="960" descent="-64" />
<missing-glyph horiz-adv-x="1024" />
<glyph unicode="&#x20;" horiz-adv-x="512" d="" />
<glyph unicode="&#xe900;" glyph-name="cloudy" d="M818.525 366.239c14.443 29.283 22.071 61.456 22.071 94.562 0 117.992-95.982 213.974-213.974 213.974-70.321 0-135.949-34.861-175.702-92.023-2.566 0.078-5.105 0.321-7.688 0.321-117.134 0-217.322-76.603-249.295-186.217-8.818 1.606-18.065 2.813-25.814 2.813-92.713-0.006-168.122-75.431-168.122-168.127s75.409-168.122 168.122-168.122h550.218c92.696 0 168.122 75.426 168.122 168.122 0 55.144-26.808 104.022-67.937 134.697zM626.621 613.638c84.274 0 152.837-68.563 152.837-152.837 0-23.66-5.501-46.617-15.833-67.508-14.443 4.050-29.59 6.373-45.285 6.373-7.763 0-16.996-1.207-25.83-2.813-24.576 84.23-89.471 148.789-171.331 174.251 28.090 26.791 65.659 42.533 105.442 42.533zM718.34 124.555h-550.218c-58.981 0-106.987 48.006-106.987 106.987s48.006 106.987 106.987 106.987c4.233 0 11.049-1.038 18.234-2.475v-28.092c0-16.874 13.693-30.567 30.567-30.567s30.567 13.693 30.567 30.567v49.2c16.401 95.57 98.366 164.775 195.741 164.775 97.389 0 179.37-69.235 195.741-164.852v-49.122c0-16.874 13.693-30.567 30.567-30.567s30.567 13.693 30.567 30.567v28.076c7.198 1.437 14.045 2.492 18.234 2.492 58.981 0 106.987-48.006 106.987-106.987s-48.006-106.987-106.987-106.987zM626.621 735.908c16.874 0 30.567 13.693 30.567 30.567v61.138c0 16.874-13.693 30.567-30.567 30.567-16.888 0-30.567-13.693-30.567-30.567v-61.135c0-16.874 13.679-30.57 30.567-30.57zM993.433 491.366h-61.135c-16.888 0-30.567-13.693-30.567-30.567s13.679-30.567 30.567-30.567h61.135c16.874 0 30.567 13.693 30.567 30.567s-13.693 30.567-30.567 30.567zM842.78 646.39c7.827 0 15.637 2.979 21.611 8.956l43.222 43.222c11.938 11.938 11.938 31.287 0 43.222-11.938 11.938-31.287 11.938-43.222 0l-43.222-43.222c-11.938-11.938-11.938-31.287 0-43.222 5.961-5.974 13.787-8.956 21.611-8.956zM388.852 655.346c5.977-5.977 13.787-8.956 21.611-8.956 7.827 0 15.637 2.979 21.611 8.956 11.938 11.938 11.938 31.287 0 43.222l-43.222 43.225c-11.938 11.938-31.287 11.938-43.222 0-11.938-11.938-11.938-31.287 0-43.222l43.222-43.225z" />
<glyph unicode="&#xe901;" glyph-name="facebook" d="M579.65 590.119v75.627c0 11.353 0.522 20.147 1.584 26.358 1.058 6.222 3.463 12.341 7.199 18.38 3.729 6.037 9.767 10.205 18.106 12.513 8.349 2.313 19.446 3.466 33.298 3.466h75.623v151.25h-120.897c-69.954 0-120.197-16.597-150.733-49.791-30.534-33.201-45.798-82.106-45.798-146.731v-91.071h-90.552v-151.261h90.546v-438.855h181.624v438.855h120.89l15.979 151.261h-136.867z" />
<glyph unicode="&#xe902;" glyph-name="email" d="M512.007 350.37l-465.813 409.049h931.61zM326.446 438.99l-326.446-286.675v573.347zM368.761 401.828l143.246-125.783 143.218 125.783 322.874-283.533h-932.198zM697.54 438.976l326.46 286.687v-573.347z" />
<glyph unicode="&#xe903;" glyph-name="envelope" d="M98.285 593.138c12.953-9.141 52-36.289 117.142-81.429 65.144-45.141 115.048-79.898 149.715-104.274 3.809-2.672 11.901-8.48 24.28-17.433 12.381-8.959 22.669-16.198 30.855-21.72 8.192-5.52 18.095-11.713 29.72-18.568 11.62-6.849 22.574-12.001 32.86-15.411 10.288-3.439 19.81-5.142 28.571-5.142h1.151c8.76 0 18.287 1.705 28.575 5.142 10.282 3.41 21.246 8.568 32.856 15.411 11.616 6.863 21.52 13.050 29.712 18.568 8.192 5.522 18.471 12.761 30.857 21.72 12.377 8.961 20.479 14.761 24.288 17.433 35.042 24.376 124.193 86.283 267.424 185.716 27.808 19.42 51.041 42.853 69.705 70.283 18.678 27.418 28.006 56.181 28.006 86.273 0 25.146-9.053 46.672-27.15 64.575-18.095 17.907-39.527 26.856-64.281 26.856h-841.142c-29.331 0-51.904-9.903-67.713-29.71-15.808-19.81-23.711-44.573-23.711-74.284 0-24 10.48-50.007 31.429-78.005 20.947-28 43.24-50.003 66.855-66zM966.849 532.001c-124.939-84.564-219.809-150.284-284.561-197.146-21.714-15.994-39.329-28.479-52.857-37.425-13.528-8.953-31.519-18.095-53.999-27.424-22.472-9.343-43.416-14-62.848-14h-1.157c-19.428 0-40.383 4.657-62.856 14-22.472 9.329-40.476 18.471-53.999 27.424-13.52 8.947-31.141 21.432-52.853 37.425-51.432 37.712-146.097 103.436-283.998 197.146-21.72 14.467-40.958 31.049-57.72 49.712v-453.7c0-25.158 8.949-46.672 26.856-64.577 17.903-17.911 39.431-26.864 64.575-26.864h841.144c25.138 0 46.664 8.953 64.569 26.864 17.911 17.911 26.856 39.417 26.856 64.577v453.7c-16.384-18.277-35.426-34.859-57.152-49.712z" />
<glyph unicode="&#xe904;" glyph-name="right-arrow" d="M743.156 728.843l-45.612-45.614 202.973-202.975h-900.517v-64.509h900.517l-202.973-202.973 45.612-45.614 280.844 280.844z" />
<glyph unicode="&#xe905;" glyph-name="photo-camera" d="M905.64 43.471h-787.298c-65.264 0-118.341 53.077-118.341 118.341v479.932c0 65.264 53.077 118.341 118.341 118.341h160.649l14.062 47.436c5.739 25.957 29.468 45.009 57.377 45.009h323.147c27.12 0 51.122-18.954 57.475-45.245l0.374-1.617 12.819-45.58h161.416c65.264 0 118.341-53.077 118.341-118.341v-479.929c-0.018-65.27-53.114-118.347-118.359-118.347zM118.342 720.636c-43.511 0-78.893-35.385-78.893-78.893v-479.929c0-43.511 35.385-78.893 78.893-78.893h787.298c43.511 0 78.893 35.385 78.893 78.893v479.929c0 43.511-35.385 78.893-78.893 78.893h-191.277l-21.596 77.021c-1.992 8.955-10.060 15.443-19.211 15.443h-323.15c-9.29 0-17.18-6.35-19.211-15.464l-22.799-76.999h-190.055zM512.021 162.702c-138.043 0-250.35 112.286-250.35 250.31 0 138.043 112.304 250.329 250.35 250.329 138.006 0 250.292-112.304 250.292-250.329-0.003-138.006-112.289-250.31-250.292-250.31zM512.021 623.913c-116.291 0-210.902-94.593-210.902-210.884s94.615-210.862 210.902-210.862c116.269 0 210.844 94.593 210.844 210.862-0.003 116.291-94.596 210.884-210.844 210.884zM880.177 647.424c-20.117 0-36.391-16.311-36.391-36.391 0-20.098 16.271-36.388 36.391-36.388 20.098 0 36.37 16.293 36.37 36.388-0.018 20.080-16.293 36.391-36.37 36.391z" />
<glyph unicode="&#xe906;" glyph-name="right-arrows" d="M128 128h128l320 320-320 320h-128l320-320zM448 128h128l320 320-320 320h-128l320-320z" />
<glyph unicode="&#xf095;" glyph-name="phone" horiz-adv-x="805" d="M804.572 242.286c0-20.571-9.143-60.571-17.714-79.429-12-28-44-46.286-69.714-60.571-33.714-18.286-68-29.143-106.286-29.143-53.143 0-101.143 21.714-149.714 39.429-34.857 12.571-68.571 28-100 47.429-97.143 60-214.286 177.143-274.286 274.286-19.429 31.429-34.857 65.143-47.429 100-17.714 48.571-39.429 96.571-39.429 149.714 0 38.286 10.857 72.571 29.143 106.286 14.286 25.714 32.571 57.714 60.571 69.714 18.857 8.571 58.857 17.714 79.429 17.714 4 0 8 0 12-1.714 12-4 24.571-32 30.286-43.429 18.286-32.571 36-65.714 54.857-97.714 9.143-14.857 26.286-33.143 26.286-50.857 0-34.857-103.429-85.714-103.429-116.571 0-15.429 14.286-35.429 22.286-49.143 57.714-104 129.714-176 233.714-233.714 13.714-8 33.714-22.286 49.143-22.286 30.857 0 81.714 103.429 116.571 103.429 17.714 0 36-17.143 50.857-26.286 32-18.857 65.143-36.571 97.714-54.857 11.429-5.714 39.429-18.286 43.429-30.286 1.714-4 1.714-8 1.714-12z" />
<glyph unicode="&#xf16d;" glyph-name="instagram" horiz-adv-x="878" d="M584.953 438.857c0 80.466-65.628 146.096-146.096 146.096s-146.096-65.628-146.096-146.096 65.628-146.096 146.096-146.096 146.096 65.628 146.096 146.096zM663.707 438.857c0-124.409-100.44-224.85-224.85-224.85s-224.85 100.44-224.85 224.85 100.44 224.85 224.85 224.85 224.85-100.44 224.85-224.85zM725.341 672.838c0-29.105-23.399-52.503-52.503-52.503s-52.503 23.399-52.503 52.503 23.399 52.503 52.503 52.503 52.503-23.399 52.503-52.503zM438.857 798.389c-63.917 0-200.881 5.136-258.52-17.691-19.974-7.99-34.812-17.691-50.221-33.1s-25.11-30.247-33.1-50.221c-22.827-57.639-17.691-194.603-17.691-258.52s-5.136-200.881 17.691-258.52c7.99-19.974 17.691-34.812 33.1-50.221s30.247-25.11 50.221-33.1c57.639-22.827 194.603-17.691 258.52-17.691s200.881-5.136 258.52 17.691c19.974 7.99 34.812 17.691 50.221 33.1s25.11 30.247 33.1 50.221c22.827 57.639 17.691 194.603 17.691 258.52s5.136 200.881-17.691 258.52c-7.99 19.974-17.691 34.812-33.1 50.221s-30.247 25.11-50.221 33.1c-57.639 22.827-194.603 17.691-258.52 17.691zM877.143 438.857c0-60.492 0.57-120.414-2.853-180.907-3.425-70.195-19.404-132.398-70.765-183.761s-113.566-67.341-183.761-70.765c-60.492-3.425-120.414-2.853-180.907-2.853s-120.414-0.57-180.907 2.853c-70.195 3.425-132.398 19.404-183.761 70.765s-67.341 113.566-70.765 183.761c-3.425 60.492-2.853 120.414-2.853 180.907s-0.57 120.414 2.853 180.907c3.425 70.195 19.404 132.398 70.765 183.761s113.566 67.341 183.761 70.765c60.492 3.425 120.414 2.853 180.907 2.853s120.414 0.57 180.907-2.853c70.195-3.425 132.398-19.404 183.761-70.765s67.341-113.566 70.765-183.761c3.425-60.492 2.853-120.414 2.853-180.907z" />
</font></defs></svg>